codes_allpass/CPU.vcd
$date
	Sun Jan 16 15:19:35 2022
$end
$version
	Icarus Verilog
$end
$timescale
	1s
$end
$scope module testbench $end
$var wire 256 ! mem_cpu_data [255:0] $end
$var wire 1 " mem_cpu_ack $end
$var wire 1 # cpu_mem_write $end
$var wire 1 $ cpu_mem_enable $end
$var wire 256 % cpu_mem_data [255:0] $end
$var wire 32 & cpu_mem_addr [31:0] $end
$var reg 1 ' Clk $end
$var reg 1 ( Reset $end
$var reg 1 ) Start $end
$var reg 27 * address [26:0] $end
$var reg 1 + flag $end
$var reg 4 , index [3:0] $end
$var reg 24 - tag [23:0] $end
$var reg 1 . tag_validity $end
$var integer 32 / counter [31:0] $end
$var integer 32 0 i [31:0] $end
$var integer 32 1 j [31:0] $end
$var integer 32 2 outfile [31:0] $end
$var integer 32 3 outfile2 [31:0] $end
$scope module CPU $end
$var wire 1 ' clk_i $end
$var wire 32 4 const4 [31:0] $end
$var wire 32 5 mem_addr_o [31:0] $end
$var wire 256 6 mem_data_o [255:0] $end
$var wire 1 $ mem_enable_o $end
$var wire 1 7 mem_to_dcache_ack $end
$var wire 256 8 mem_to_dcache_data [255:0] $end
$var wire 1 # mem_write_o $end
$var wire 1 ( rst_i $end
$var wire 1 ) start_i $end
$var wire 1 9 toFlush $end
$var wire 32 : wbWriteData [31:0] $end
$var wire 1 ; wbRegWrite $end
$var wire 5 < wbRd [4:0] $end
$var wire 1 = wbMemtoReg $end
$var wire 32 > wbDMdata [31:0] $end
$var wire 32 ? wbALUResult [31:0] $end
$var wire 32 @ update_addr [31:0] $end
$var wire 32 A mempreALUd2 [31:0] $end
$var wire 256 B mem_data_i [255:0] $end
$var wire 1 " mem_ack_i $end
$var wire 1 C memStall $end
$var wire 1 D memRegWrite $end
$var wire 5 E memRd [4:0] $end
$var wire 1 F memMemtoReg $end
$var wire 1 G memMemWrite $end
$var wire 1 H memMemRead $end
$var wire 32 I memDCdata [31:0] $end
$var wire 32 J memALUResult [31:0] $end
$var wire 1 K isBranch $end
$var wire 32 L instr_2 [31:0] $end
$var wire 32 M instr [31:0] $end
$var wire 32 N ext_immed [31:0] $end
$var wire 5 O exrs2 [4:0] $end
$var wire 5 P exrs1 [4:0] $end
$var wire 32 Q expreALUd2 [31:0] $end
$var wire 10 R exfunc10 [9:0] $end
$var wire 32 S exdata2 [31:0] $end
$var wire 32 T exdata1 [31:0] $end
$var wire 1 U exRegWrite $end
$var wire 5 V exRd [4:0] $end
$var wire 1 W exMemtoreg $end
$var wire 1 X exMemWrite $end
$var wire 1 Y exMemRead $end
$var wire 32 Z exImm [31:0] $end
$var wire 1 [ exALUSrc $end
$var wire 32 \ exALUResult [31:0] $end
$var wire 2 ] exALUOp [1:0] $end
$var wire 1 ^ dcache_to_mem_write $end
$var wire 1 _ dcache_to_mem_enable $end
$var wire 256 ` dcache_to_mem_data [255:0] $end
$var wire 32 a dcache_to_mem_addr [31:0] $end
$var wire 32 b data2 [31:0] $end
$var wire 32 c data1 [31:0] $end
$var wire 32 d addr [31:0] $end
$var wire 1 e Stall $end
$var wire 32 f Sext_immed [31:0] $end
$var wire 1 g RegWrite $end
$var wire 1 h PCWrite $end
$var wire 32 i PCMUXvalue [31:0] $end
$var wire 1 j NoOp $end
$var wire 1 k MemtoReg $end
$var wire 1 l MemWrite $end
$var wire 1 m MemRead $end
$var wire 32 n IFpcvalue [31:0] $end
$var wire 2 o ForwardB [1:0] $end
$var wire 2 p ForwardA [1:0] $end
$var wire 32 q BranchTarget [31:0] $end
$var wire 32 r ALUoperand2 [31:0] $end
$var wire 32 s ALUoperand1 [31:0] $end
$var wire 1 t ALUSrc $end
$var wire 2 u ALUOp [1:0] $end
$var wire 3 v ALUCtrlSig [2:0] $end
$scope module ALU $end
$var wire 32 w data2_i [31:0] $end
$var wire 32 x data1_i [31:0] $end
$var wire 3 y ALUCtrl_i [2:0] $end
$var reg 32 z data_o [31:0] $end
$upscope $end
$scope module ALU_Control $end
$var wire 10 { funct_i [9:0] $end
$var wire 2 | ALUOp_i [1:0] $end
$var reg 3 } ALUCtrl_o [2:0] $end
$upscope $end
$scope module Add_PC $end
$var wire 32 ~ data2_i [31:0] $end
$var wire 32 !" data_o [31:0] $end
$var wire 32 "" data1_i [31:0] $end
$var reg 32 #" data_o_reg [31:0] $end
$upscope $end
$scope module Bh_Adder $end
$var wire 32 $" data_o [31:0] $end
$var wire 32 %" data2_i [31:0] $end
$var wire 32 &" data1_i [31:0] $end
$var reg 32 '" data_o_reg [31:0] $end
$upscope $end
$scope module Control $end
$var wire 7 (" Op_i [6:0] $end
$var wire 1 j NoOp_i $end
$var reg 2 )" ALUOp_o [1:0] $end
$var reg 1 t ALUSrc_o $end
$var reg 1 K Branch_o $end
$var reg 1 m MemRead_o $end
$var reg 1 l MemWrite_o $end
$var reg 1 k MemtoReg_o $end
$var reg 1 g RegWrite_o $end
$upscope $end
$scope module EXMEM $end
$var wire 1 ' clk_i $end
$var wire 32 *" exALUresult [31:0] $end
$var wire 1 C memStall_i $end
$var wire 32 +" expreALUd2 [31:0] $end
$var wire 1 U exRegWrite $end
$var wire 5 ," exRd [4:0] $end
$var wire 1 W exMemtoReg $end
$var wire 1 X exMemWrite $end
$var wire 1 Y exMemRead $end
$var reg 32 -" memALUresult [31:0] $end
$var reg 1 H memMemRead $end
$var reg 1 G memMemWrite $end
$var reg 1 F memMemtoReg $end
$var reg 5 ." memRd [4:0] $end
$var reg 1 D memRegWrite $end
$var reg 32 /" mempreALUd2 [31:0] $end
$upscope $end
$scope module FW $end
$var wire 5 0" memRd_i [4:0] $end
$var wire 1 D memRegWrite_i $end
$var wire 1 ; wbRegWrite_i $end
$var wire 5 1" wbRd_i [4:0] $end
$var wire 5 2" exRs2_i [4:0] $end
$var wire 5 3" exRs1_i [4:0] $end
$var reg 2 4" ForwardA_o [1:0] $end
$var reg 2 5" ForwardB_o [1:0] $end
$upscope $end
$scope module HzDetectionUnit $end
$var wire 5 6" IDRs1_i [4:0] $end
$var wire 5 7" IDRs2_i [4:0] $end
$var wire 1 e Stall_o $end
$var wire 1 h PCWrite_o $end
$var wire 1 j NoOp_o $end
$var wire 5 8" EXRd_i [4:0] $end
$var wire 1 Y EXMemRead_i $end
$var reg 1 9" flag $end
$upscope $end
$scope module IDEX $end
$var wire 1 ' clk_i $end
$var wire 2 :" idALUOp_i [1:0] $end
$var wire 1 t idALUSrc_i $end
$var wire 1 m idMemRead_i $end
$var wire 1 l idMemWrite_i $end
$var wire 1 k idMemtoReg_i $end
$var wire 5 ;" idRd_i [4:0] $end
$var wire 1 g idRegWrite_i $end
$var wire 10 <" idfunc10_i [9:0] $end
$var wire 5 =" idrs1_i [4:0] $end
$var wire 5 >" idrs2_i [4:0] $end
$var wire 1 C memStall_i $end
$var wire 32 ?" iddata2_i [31:0] $end
$var wire 32 @" iddata1_i [31:0] $end
$var wire 32 A" idImm_i [31:0] $end
$var reg 2 B" exALUOp_o [1:0] $end
$var reg 1 [ exALUSrc_o $end
$var reg 32 C" exImm_o [31:0] $end
$var reg 1 Y exMemRead_o $end
$var reg 1 X exMemWrite_o $end
$var reg 1 W exMemtoReg_o $end
$var reg 5 D" exRd_o [4:0] $end
$var reg 1 U exRegWrite_o $end
$var reg 32 E" exdata1_o [31:0] $end
$var reg 32 F" exdata2_o [31:0] $end
$var reg 10 G" exfunc10_o [9:0] $end
$var reg 5 H" exrs1_o [4:0] $end
$var reg 5 I" exrs2_o [4:0] $end
$upscope $end
$scope module IFID $end
$var wire 1 9 Flush_i $end
$var wire 1 e Stall_i $end
$var wire 1 ' clk_i $end
$var wire 32 J" harmless_op [31:0] $end
$var wire 32 K" nowPC_i [31:0] $end
$var wire 1 C memStall_i $end
$var wire 32 L" instr_i [31:0] $end
$var reg 32 M" PCval_o [31:0] $end
$var reg 32 N" instr_o [31:0] $end
$upscope $end
$scope module Instruction_Memory $end
$var wire 32 O" instr_o [31:0] $end
$var wire 32 P" addr_i [31:0] $end
$upscope $end
$scope module MEMWB $end
$var wire 1 ' clk_i $end
$var wire 32 Q" memALUResult [31:0] $end
$var wire 1 F memMemtoReg $end
$var wire 5 R" memRd [4:0] $end
$var wire 1 D memRegWrite $end
$var wire 1 C memStall_i $end
$var wire 32 S" memDMdata [31:0] $end
$var reg 32 T" wbALUResult [31:0] $end
$var reg 32 U" wbDMdata [31:0] $end
$var reg 1 = wbMemtoReg $end
$var reg 5 V" wbRd [4:0] $end
$var reg 1 ; wbRegWrite $end
$upscope $end
$scope module MUX_ALU1 $end
$var wire 32 W" exdata_i [31:0] $end
$var wire 32 X" memALUResult_i [31:0] $end
$var wire 2 Y" select_i [1:0] $end
$var wire 32 Z" wbWriteData_i [31:0] $end
$var reg 32 [" data_o [31:0] $end
$upscope $end
$scope module MUX_ALU2 $end
$var wire 32 \" exdata_i [31:0] $end
$var wire 32 ]" memALUResult_i [31:0] $end
$var wire 2 ^" select_i [1:0] $end
$var wire 32 _" wbWriteData_i [31:0] $end
$var reg 32 `" data_o [31:0] $end
$upscope $end
$scope module MUX_ALUSrc $end
$var wire 32 a" data1_i [31:0] $end
$var wire 32 b" data2_i [31:0] $end
$var wire 1 [ select_i $end
$var wire 32 c" data_o [31:0] $end
$upscope $end
$scope module MUX_MemtoReg $end
$var wire 32 d" data1_i [31:0] $end
$var wire 32 e" data2_i [31:0] $end
$var wire 1 = select_i $end
$var wire 32 f" data_o [31:0] $end
$upscope $end
$scope module PC $end
$var wire 1 h PCWrite_i $end
$var wire 1 ' clk_i $end
$var wire 1 ( rst_i $end
$var wire 1 e stall_i $end
$var wire 1 ) start_i $end
$var wire 32 g" pc_i [31:0] $end
$var wire 1 C memStall_i $end
$var reg 32 h" pc_o [31:0] $end
$upscope $end
$scope module PCMUX $end
$var wire 32 i" data1_i [31:0] $end
$var wire 32 j" data2_i [31:0] $end
$var wire 1 9 select_i $end
$var wire 32 k" data_o [31:0] $end
$upscope $end
$scope module Registers $end
$var wire 5 l" RDaddr_i [4:0] $end
$var wire 32 m" RDdata_i [31:0] $end
$var wire 5 n" RS1addr_i [4:0] $end
$var wire 5 o" RS2addr_i [4:0] $end
$var wire 1 ; RegWrite_i $end
$var wire 1 ' clk_i $end
$var wire 32 p" RS2data_o [31:0] $end
$var wire 32 q" RS1data_o [31:0] $end
$upscope $end
$scope module Shifter $end
$var wire 32 r" data_o [31:0] $end
$var wire 32 s" data_i [31:0] $end
$upscope $end
$scope module Sign_Extend $end
$var wire 32 t" data_i [31:0] $end
$var wire 10 u" opfunc3 [9:0] $end
$var wire 32 v" data_o [31:0] $end
$var reg 12 w" imm [11:0] $end
$upscope $end
$scope module dcache $end
$var wire 1 x" cache_dirty $end
$var wire 1 y" cache_sram_enable $end
$var wire 4 z" cache_sram_index [3:0] $end
$var wire 1 {" cache_sram_write $end
$var wire 1 ' clk_i $end
$var wire 1 H cpu_MemRead_i $end
$var wire 1 G cpu_MemWrite_i $end
$var wire 32 |" cpu_addr_i [31:0] $end
$var wire 32 }" cpu_data_i [31:0] $end
$var wire 32 ~" cpu_data_o [31:0] $end
$var wire 1 !# cpu_req $end
$var wire 1 C cpu_stall_o $end
$var wire 1 7 mem_ack_i $end
$var wire 256 "# mem_data_i [255:0] $end
$var wire 256 ## mem_data_o [255:0] $end
$var wire 1 _ mem_enable_o $end
$var wire 1 ^ mem_write_o $end
$var wire 1 ( rst_i $end
$var wire 1 $# write_hit $end
$var wire 1 %# sram_valid $end
$var wire 23 &# sram_tag [22:0] $end
$var wire 1 '# sram_dirty $end
$var wire 25 (# sram_cache_tag [24:0] $end
$var wire 256 )# sram_cache_data [255:0] $end
$var wire 256 *# r_hit_data [255:0] $end
$var wire 32 +# mem_addr_o [31:0] $end
$var wire 1 ,# hit $end
$var wire 23 -# cpu_tag [22:0] $end
$var wire 5 .# cpu_offset [4:0] $end
$var wire 4 /# cpu_index [3:0] $end
$var wire 25 0# cache_sram_tag [24:0] $end
$var wire 256 1# cache_sram_data [255:0] $end
$var reg 1 2# cache_write $end
$var reg 32 3# cpu_data [31:0] $end
$var reg 1 _ mem_enable $end
$var reg 1 ^ mem_write $end
$var reg 3 4# state [2:0] $end
$var reg 256 5# w_hit_data [255:0] $end
$var reg 1 6# write_back $end
$scope module dcache_sram $end
$var wire 4 7# addr_i [3:0] $end
$var wire 1 ' clk_i $end
$var wire 256 8# data_i [255:0] $end
$var wire 1 y" enable_i $end
$var wire 1 9# hit $end
$var wire 1 :# hit_w0 $end
$var wire 1 ;# hit_w1 $end
$var wire 1 ( rst_i $end
$var wire 25 <# tag_i [24:0] $end
$var wire 1 =# validw $end
$var wire 1 {" write_i $end
$var wire 1 ># vw1 $end
$var wire 1 ?# vw0 $end
$var reg 256 @# data_o [255:0] $end
$var reg 1 ,# hit_o $end
$var reg 25 A# tag_o [24:0] $end
$var integer 32 B# i [31:0] $end
$var integer 32 C# j [31:0] $end
$upscope $end
$upscope $end
$upscope $end
$scope module Data_Memory $end
$var wire 1 " ack_o $end
$var wire 32 D# addr_i [31:0] $end
$var wire 1 ' clk_i $end
$var wire 256 E# data_i [255:0] $end
$var wire 256 F# data_o [255:0] $end
$var wire 1 $ enable_i $end
$var wire 1 ( rst_i $end
$var wire 1 # write_i $end
$var wire 27 G# addr [26:0] $end
$var reg 4 H# count [3:0] $end
$var reg 256 I# data [255:0] $end
$var reg 2 J# state [1:0] $end
$upscope $end
$upscope $end
$enddefinitions $end
#0
$dumpvars
b0 J#
bx I#
b0 H#
bx G#
bx F#
bx E#
bx00000 D#
b10 C#
b10000 B#
bx A#
bx @#
x?#
x>#
x=#
b1xxxxxxxxxxxxxxxxxxxxxxxx <#
x;#
x:#
x9#
bx 8#
bx 7#
06#
bx 5#
b0 4#
bx 3#
02#
bx 1#
b1xxxxxxxxxxxxxxxxxxxxxxxx 0#
bx /#
bx .#
bx -#
x,#
bx00000 +#
bx *#
bx )#
bx (#
x'#
bx &#
x%#
x$#
bx ##
bx "#
x!#
bx ~"
bx }"
bx |"
x{"
bx z"
xy"
xx"
bx w"
bx v"
bx u"
bx t"
bx s"
bx0 r"
bx q"
bx p"
bx o"
bx n"
bx m"
bx l"
b100 k"
bx j"
b100 i"
b0 h"
b100 g"
bx f"
bx e"
bx d"
bx c"
bx b"
bx a"
bx `"
bx _"
bx ^"
bx ]"
bx \"
bx ["
bx Z"
bx Y"
bx X"
bx W"
bx V"
bx U"
bx T"
bx S"
bx R"
bx Q"
b0 P"
bx O"
bx N"
bx M"
bx L"
b0 K"
b1000000110011 J"
bx I"
bx H"
bx G"
bx F"
bx E"
bx D"
bx C"
bx B"
bx A"
bx @"
bx ?"
bx >"
bx ="
bx <"
bx ;"
b10 :"
09"
bx 8"
bx 7"
bx 6"
bx 5"
bx 4"
bx 3"
bx 2"
bx 1"
bx 0"
bx /"
bx ."
bx -"
bx ,"
bx +"
bx *"
b10 )"
bx ("
bx '"
bx &"
bx0 %"
bx $"
b100 #"
b0 ""
b100 !"
b100 ~
bx }
bx |
bx {
bx z
bx y
bx x
bx w
bx v
b10 u
0t
bx s
bx r
bx q
bx p
bx o
bx n
0m
0l
0k
0j
b100 i
1h
0g
bx0 f
0e
b0 d
bx c
bx b
bx00000 a
bx `
0_
0^
bx ]
bx \
x[
bx Z
xY
xX
xW
bx V
xU
bx T
bx S
bx R
bx Q
bx P
bx O
bx N
bx M
bx L
0K
bx J
bx I
xH
xG
xF
bx E
xD
xC
bx B
bx A
b100 @
bx ?
bx >
x=
bx <
x;
bx :
09
bx 8
07
bx 6
bx00000 5
b100 4
bx 3
bx 2
bx 1
bx 0
b0 /
x.
bx -
bx ,
x+
bx *
0)
1(
0'
bx00000 &
bx %
0$
0#
0"
bx !
$end
#12
b0 G#
0,#
09#
1=#
b0 q
b0 $"
b0 '"
b0 j"
0:#
0;#
b0 \
b0 z
b0 *"
b0 &
b0 5
b0 D#
b0 a
b0 +#
0?#
0>#
0{"
0C
b0 r
b0 w
b0 c"
b0 f
b0 %"
b0 r"
b0 b
b0 ?"
b0 p"
b0 c
b0 @"
b0 q"
b0 :
b0 Z"
b0 _"
b0 f"
b0 m"
b0 -#
b0 z"
b0 7#
b0 /#
b0 .#
b1000000000000000000000000 0#
b1000000000000000000000000 <#
0x"
0$#
0y"
0!#
b0 o
b0 5"
b0 ^"
b0 p
b0 4"
b0 Y"
b0 Q
b0 +"
b0 `"
b0 a"
b0 s
b0 x
b0 ["
b11 v
b11 y
b11 }
b0 N
b0 A"
b0 s"
b0 v"
b0 w"
b0 u"
b0 ;"
b0 >"
b0 ="
b0 <"
b0 7"
b0 6"
b0 o"
b0 n"
b0 ("
b101 3
b11 2
b0 <
b0 1"
b0 V"
b0 l"
b0 >
b0 U"
b0 e"
b0 ?
b0 T"
b0 d"
0=
0;
b0 E
b0 ."
b0 0"
b0 R"
b0 A
b0 /"
b0 }"
b0 J
b0 -"
b0 Q"
b0 X"
b0 ]"
b0 |"
0G
0H
0F
0D
b0 V
b0 ,"
b0 8"
b0 D"
b0 O
b0 2"
b0 I"
b0 P
b0 3"
b0 H"
b0 R
b0 {
b0 G"
b0 Z
b0 C"
b0 b"
b0 S
b0 F"
b0 \"
b0 T
b0 E"
b0 W"
0[
b0 ]
b0 |
b0 B"
0X
0Y
0W
0U
b0 L
b0 N"
b0 t"
b0 n
b0 &"
b0 M"
bx I
bx S"
bx ~"
bx 3#
bx00000000000000000000000000000000 5#
b10 1
b10011110000011 M
b10011110000011 L"
b10011110000011 O"
b1000000000 0
1)
0(
#25
1m
1k
1g
b0 u
b0 )"
b0 :"
1t
b1000 i
b1000 g"
b1000 k"
b11010 u"
b1111 ;"
b10 <"
b11 ("
b10000000010011100000011 M
b10000000010011100000011 L"
b10000000010011100000011 O"
b1000 @
b1000 !"
b1000 #"
b1000 i"
b10011110000011 L
b10011110000011 N"
b10011110000011 t"
b10 ]
b10 |
b10 B"
bx >
bx U"
bx e"
b100 d
b100 ""
b100 K"
b100 P"
b100 h"
b1 /
0+
1'
#50
0'
#75
b1000 f
b1000 %"
b1000 r"
b1100 i
b1100 g"
b1100 k"
b1100 q
b1100 $"
b1100 '"
b1100 j"
b100 N
b100 A"
b100 s"
b100 v"
b100 w"
b1110 ;"
b100 >"
b100 7"
b100 o"
b100000000010011010000011 M
b100000000010011010000011 L"
b100000000010011010000011 O"
b1100 @
b1100 !"
b1100 #"
b1100 i"
b1111 V
b1111 ,"
b1111 8"
b1111 D"
b10 R
b10 {
b10 G"
1[
b0 ]
b0 |
b0 B"
1Y
1W
1U
b100 n
b100 &"
b100 M"
b10000000010011100000011 L
b10000000010011100000011 N"
b10000000010011100000011 t"
b1000 d
b1000 ""
b1000 K"
b1000 P"
b1000 h"
b10 /
1'
#100
0'
#125
b0 &#
0'#
1%#
b1000000000000000000000000 (#
b1000000000000000000000000 A#
b10000 f
b10000 %"
b10000 r"
b100 \
b100 z
b100 *"
1C
b10000 i
b10000 g"
b10000 k"
b11000 q
b11000 $"
b11000 '"
b11000 j"
b1000 N
b1000 A"
b1000 s"
b1000 v"
b1000 w"
b1101 ;"
b1000 >"
b1000 7"
b1000 o"
b100 r
b100 w
b100 c"
1y"
1!#
b110000000010011000000011 M
b110000000010011000000011 L"
b110000000010011000000011 O"
b10000 @
b10000 !"
b10000 #"
b10000 i"
b1000 n
b1000 &"
b1000 M"
b100000000010011010000011 L
b100000000010011010000011 N"
b100000000010011010000011 t"
b1110 V
b1110 ,"
b1110 8"
b1110 D"
b100 O
b100 2"
b100 I"
b100 Z
b100 C"
b100 b"
b1111 E
b1111 ."
b1111 0"
b1111 R"
1H
1F
1D
b1100 d
b1100 ""
b1100 K"
b1100 P"
b1100 h"
b11 /
1'
#150
0'
#175
b100 4#
b100 /
1+
1'
#200
0'
#225
b1 4#
1$
1_
b101 /
1'
#250
0'
#275
b1 H#
b1 J#
b110 /
1'
#300
0'
#325
b10 H#
b111 /
1'
#350
0'
#375
b11 H#
b1000 /
1'
#400
0'
#425
b100 H#
b1001 /
1'
#450
0'
#475
b101 H#
b1010 /
1'
#500
0'
#525
b110 H#
b1011 /
1'
#550
0'
#575
b111 H#
b1100 /
1'
#600
0'
#625
b1000 H#
b1101 /
1'
#650
0'
#675
17
1"
b1001 H#
b1110 /
1'
#700
0'
#725
07
0"
1{"
b100010001000100100010001000100011001100110011010001000100010001010101010101010110011001100110011101110111011110001000100010001001100110011001101010101010101010111011101110111100110011001100110111011101110111101110111011101111111111111111 %
b100010001000100100010001000100011001100110011010001000100010001010101010101010110011001100110011101110111011110001000100010001001100110011001101010101010101010111011101110111100110011001100110111011101110111101110111011101111111111111111 6
b100010001000100100010001000100011001100110011010001000100010001010101010101010110011001100110011101110111011110001000100010001001100110011001101010101010101010111011101110111100110011001100110111011101110111101110111011101111111111111111 E#
b100010001000100100010001000100011001100110011010001000100010001010101010101010110011001100110011101110111011110001000100010001001100110011001101010101010101010111011101110111100110011001100110111011101110111101110111011101111111111111111 `
b100010001000100100010001000100011001100110011010001000100010001010101010101010110011001100110011101110111011110001000100010001001100110011001101010101010101010111011101110111100110011001100110111011101110111101110111011101111111111111111 ##
b100010001000100100010001000100011001100110011010001000100010001010101010101010110011001100110011101110111011110001000100010001001100110011001101010101010101010111011101110111100110011001100110111011101110111101110111011101111111111111111 )#
b100010001000100100010001000100011001100110011010001000100010001010101010101010110011001100110011101110111011110001000100010001001100110011001101010101010101010111011101110111100110011001100110111011101110111101110111011101111111111111111 @#
b0 H#
b0 J#
b10 4#
12#
b100010001000100100010001000100011001100110011010001000100010001010101010101010110011001100110011101110111011110001000100010001001100110011001101010101010101010111011101110111100110011001100110111011101110100000000000000000000000000000000 5#
b11101110111011101111111111111111 I
b11101110111011101111111111111111 S"
b11101110111011101111111111111111 ~"
b11101110111011101111111111111111 3#
b100010001000100100010001000100011001100110011010001000100010001010101010101010110011001100110011101110111011110001000100010001001100110011001101010101010101010111011101110111100110011001100110111011101110111101110111011101111111111111111 1#
b100010001000100100010001000100011001100110011010001000100010001010101010101010110011001100110011101110111011110001000100010001001100110011001101010101010101010111011101110111100110011001100110111011101110111101110111011101111111111111111 8#
b100010001000100100010001000100011001100110011010001000100010001010101010101010110011001100110011101110111011110001000100010001001100110011001101010101010101010111011101110111100110011001100110111011101110111101110111011101111111111111111 *#
b100010001000100100010001000100011001100110011010001000100010001010101010101010110011001100110011101110111011110001000100010001001100110011001101010101010101010111011101110111100110011001100110111011101110111101110111011101111111111111111 8
b100010001000100100010001000100011001100110011010001000100010001010101010101010110011001100110011101110111011110001000100010001001100110011001101010101010101010111011101110111100110011001100110111011101110111101110111011101111111111111111 "#
b100010001000100100010001000100011001100110011010001000100010001010101010101010110011001100110011101110111011110001000100010001001100110011001101010101010101010111011101110111100110011001100110111011101110111101110111011101111111111111111 !
b100010001000100100010001000100011001100110011010001000100010001010101010101010110011001100110011101110111011110001000100010001001100110011001101010101010101010111011101110111100110011001100110111011101110111101110111011101111111111111111 B
b100010001000100100010001000100011001100110011010001000100010001010101010101010110011001100110011101110111011110001000100010001001100110011001101010101010101010111011101110111100110011001100110111011101110111101110111011101111111111111111 F#
b100010001000100100010001000100011001100110011010001000100010001010101010101010110011001100110011101110111011110001000100010001001100110011001101010101010101010111011101110111100110011001100110111011101110111101110111011101111111111111111 I#
b1111 /
1'
#750
0'
#775
0C
b100010001000100100010001000100011001100110011010001000100010001010101010101010110011001100110011101110111011110001000100010001001100110011001101010101010101010111011101110111100110011001100110111011101110100000000000000000000000000000000 1#
b100010001000100100010001000100011001100110011010001000100010001010101010101010110011001100110011101110111011110001000100010001001100110011001101010101010101010111011101110111100110011001100110111011101110100000000000000000000000000000000 8#
1,#
19#
1:#
1%#
1?#
0{"
b1000000000000000000000000 (#
b1000000000000000000000000 A#
b100010001000100100010001000100011001100110011010001000100010001010101010101010110011001100110011101110111011110001000100010001001100110011001101010101010101010111011101110111100110011001100110111011101110111101110111011101111111111111111 %
b100010001000100100010001000100011001100110011010001000100010001010101010101010110011001100110011101110111011110001000100010001001100110011001101010101010101010111011101110111100110011001100110111011101110111101110111011101111111111111111 6
b100010001000100100010001000100011001100110011010001000100010001010101010101010110011001100110011101110111011110001000100010001001100110011001101010101010101010111011101110111100110011001100110111011101110111101110111011101111111111111111 E#
b100010001000100100010001000100011001100110011010001000100010001010101010101010110011001100110011101110111011110001000100010001001100110011001101010101010101010111011101110111100110011001100110111011101110111101110111011101111111111111111 `
b100010001000100100010001000100011001100110011010001000100010001010101010101010110011001100110011101110111011110001000100010001001100110011001101010101010101010111011101110111100110011001100110111011101110111101110111011101111111111111111 ##
b100010001000100100010001000100011001100110011010001000100010001010101010101010110011001100110011101110111011110001000100010001001100110011001101010101010101010111011101110111100110011001100110111011101110111101110111011101111111111111111 )#
b100010001000100100010001000100011001100110011010001000100010001010101010101010110011001100110011101110111011110001000100010001001100110011001101010101010101010111011101110111100110011001100110111011101110111101110111011101111111111111111 @#
b0 4#
02#
0$
0_
b1 H#
b1 J#
b10000 /
1'
#800
0'
#825
b100010001000100100010001000100011001100110011010001000100010001010101010101010110011001100110011101110111011110001000100010001001100110011001101010101010101010111011101110110000000000000000000000000000000011101110111011101111111111111111 1#
b100010001000100100010001000100011001100110011010001000100010001010101010101010110011001100110011101110111011110001000100010001001100110011001101010101010101010111011101110110000000000000000000000000000000011101110111011101111111111111111 8#
b11000 f
b11000 %"
b11000 r"
b1000 \
b1000 z
b1000 *"
b100010001000100100010001000100011001100110011010001000100010001010101010101010110011001100110011101110111011110001000100010001001100110011001101010101010101010111011101110110000000000000000000000000000000011101110111011101111111111111111 5#
b11001100110011001101110111011101 I
b11001100110011001101110111011101 S"
b11001100110011001101110111011101 ~"
b11001100110011001101110111011101 3#
b10100 i
b10100 g"
b10100 k"
b100100 q
b100100 $"
b100100 '"
b100100 j"
b1100 N
b1100 A"
b1100 s"
b1100 v"
b1100 w"
b1100 ;"
b1100 >"
b1100 7"
b1100 o"
b1000 r
b1000 w
b1000 c"
b100 .#
b11101110111011101111111111111111 :
b11101110111011101111111111111111 Z"
b11101110111011101111111111111111 _"
b11101110111011101111111111111111 f"
b11101110111011101111111111111111 m"
b1000000000010010110000011 M
b1000000000010010110000011 L"
b1000000000010010110000011 O"
b10100 @
b10100 !"
b10100 #"
b10100 i"
b1100 n
b1100 &"
b1100 M"
b110000000010011000000011 L
b110000000010011000000011 N"
b110000000010011000000011 t"
b1101 V
b1101 ,"
b1101 8"
b1101 D"
b1000 O
b1000 2"
b1000 I"
b1000 Z
b1000 C"
b1000 b"
b1110 E
b1110 ."
b1110 0"
b1110 R"
b100 J
b100 -"
b100 Q"
b100 X"
b100 ]"
b100 |"
b1111 <
b1111 1"
b1111 V"
b1111 l"
b11101110111011101111111111111111 >
b11101110111011101111111111111111 U"
b11101110111011101111111111111111 e"
1=
1;
b10 H#
b10000 d
b10000 ""
b10000 K"
b10000 P"
b10000 h"
b10001 /
0+
1'
#850
0'
#875
b100010001000100100010001000100011001100110011010001000100010001010101010101010110011001100110011101110111011110001000100010001001100110011001000000000000000000000000000000001100110011001100110111011101110111101110111011101111111111111111 1#
b100010001000100100010001000100011001100110011010001000100010001010101010101010110011001100110011101110111011110001000100010001001100110011001000000000000000000000000000000001100110011001100110111011101110111101110111011101111111111111111 8#
b100010001000100100010001000100011001100110011010001000100010001010101010101010110011001100110011101110111011110001000100010001001100110011001000000000000000000000000000000001100110011001100110111011101110111101110111011101111111111111111 5#
b10101010101010101011101110111011 I
b10101010101010101011101110111011 S"
b10101010101010101011101110111011 ~"
b10101010101010101011101110111011 3#
b1100 \
b1100 z
b1100 *"
b100000 f
b100000 %"
b100000 r"
b11000 i
b11000 g"
b11000 k"
b11001100110011001101110111011101 :
b11001100110011001101110111011101 Z"
b11001100110011001101110111011101 _"
b11001100110011001101110111011101 f"
b11001100110011001101110111011101 m"
b1000 .#
b1100 r
b1100 w
b1100 c"
b110000 q
b110000 $"
b110000 '"
b110000 j"
b10000 N
b10000 A"
b10000 s"
b10000 v"
b10000 w"
b1011 ;"
b10000 >"
b10000 7"
b10000 o"
b1010000000010010100000011 M
b1010000000010010100000011 L"
b1010000000010010100000011 O"
b11000 @
b11000 !"
b11000 #"
b11000 i"
b1110 <
b1110 1"
b1110 V"
b1110 l"
b11001100110011001101110111011101 >
b11001100110011001101110111011101 U"
b11001100110011001101110111011101 e"
b100 ?
b100 T"
b100 d"
b1101 E
b1101 ."
b1101 0"
b1101 R"
b1000 J
b1000 -"
b1000 Q"
b1000 X"
b1000 ]"
b1000 |"
b1100 V
b1100 ,"
b1100 8"
b1100 D"
b1100 O
b1100 2"
b1100 I"
b1100 Z
b1100 C"
b1100 b"
b10000 n
b10000 &"
b10000 M"
b1000000000010010110000011 L
b1000000000010010110000011 N"
b1000000000010010110000011 t"
b10100 d
b10100 ""
b10100 K"
b10100 P"
b10100 h"
b11 H#
b10010 /
1'
#900
0'
