codes/CPU.vcd
$date
	Fri Jan 14 18:47:45 2022
$end
$version
	Icarus Verilog
$end
$timescale
	1s
$end
$scope module testbench $end
$var wire 256 ! mem_cpu_data [255:0] $end
$var wire 1 " mem_cpu_ack $end
$var wire 1 # cpu_mem_write $end
$var wire 1 $ cpu_mem_enable $end
$var wire 256 % cpu_mem_data [255:0] $end
$var wire 32 & cpu_mem_addr [31:0] $end
$var reg 1 ' Clk $end
$var reg 1 ( Reset $end
$var reg 1 ) Start $end
$var reg 1 * flag $end
$var reg 24 + tag [23:0] $end
$var integer 32 , counter [31:0] $end
$var integer 32 - i [31:0] $end
$var integer 32 . j [31:0] $end
$var integer 32 / outfile [31:0] $end
$var integer 32 0 outfile2 [31:0] $end
$scope module CPU $end
$var wire 1 ' clk_i $end
$var wire 32 1 const4 [31:0] $end
$var wire 32 2 mem_addr_o [31:0] $end
$var wire 256 3 mem_data_o [255:0] $end
$var wire 1 $ mem_enable_o $end
$var wire 1 4 mem_to_dcache_ack $end
$var wire 256 5 mem_to_dcache_data [255:0] $end
$var wire 1 # mem_write_o $end
$var wire 1 ( rst_i $end
$var wire 1 ) start_i $end
$var wire 1 6 toFlush $end
$var wire 32 7 wbWriteData [31:0] $end
$var wire 1 8 wbRegWrite $end
$var wire 5 9 wbRd [4:0] $end
$var wire 1 : wbMemtoReg $end
$var wire 32 ; wbDMdata [31:0] $end
$var wire 32 < wbALUResult [31:0] $end
$var wire 32 = update_addr [31:0] $end
$var wire 32 > mempreALUd2 [31:0] $end
$var wire 256 ? mem_data_i [255:0] $end
$var wire 1 " mem_ack_i $end
$var wire 1 @ memStall $end
$var wire 1 A memRegWrite $end
$var wire 5 B memRd [4:0] $end
$var wire 1 C memMemtoReg $end
$var wire 1 D memMemWrite $end
$var wire 1 E memMemRead $end
$var wire 32 F memDCdata [31:0] $end
$var wire 32 G memALUResult [31:0] $end
$var wire 1 H isBranch $end
$var wire 32 I instr_2 [31:0] $end
$var wire 32 J instr [31:0] $end
$var wire 32 K ext_immed [31:0] $end
$var wire 5 L exrs2 [4:0] $end
$var wire 5 M exrs1 [4:0] $end
$var wire 32 N expreALUd2 [31:0] $end
$var wire 10 O exfunc10 [9:0] $end
$var wire 32 P exdata2 [31:0] $end
$var wire 32 Q exdata1 [31:0] $end
$var wire 1 R exRegWrite $end
$var wire 5 S exRd [4:0] $end
$var wire 1 T exMemtoreg $end
$var wire 1 U exMemWrite $end
$var wire 1 V exMemRead $end
$var wire 32 W exImm [31:0] $end
$var wire 1 X exALUSrc $end
$var wire 32 Y exALUResult [31:0] $end
$var wire 2 Z exALUOp [1:0] $end
$var wire 1 [ dcache_to_mem_write $end
$var wire 1 \ dcache_to_mem_enable $end
$var wire 256 ] dcache_to_mem_data [255:0] $end
$var wire 32 ^ dcache_to_mem_addr [31:0] $end
$var wire 32 _ data2 [31:0] $end
$var wire 32 ` data1 [31:0] $end
$var wire 32 a addr [31:0] $end
$var wire 1 b Stall $end
$var wire 32 c Sext_immed [31:0] $end
$var wire 1 d RegWrite $end
$var wire 1 e PCWrite $end
$var wire 32 f PCMUXvalue [31:0] $end
$var wire 1 g NoOp $end
$var wire 1 h MemtoReg $end
$var wire 1 i MemWrite $end
$var wire 1 j MemRead $end
$var wire 32 k IFpcvalue [31:0] $end
$var wire 2 l ForwardB [1:0] $end
$var wire 2 m ForwardA [1:0] $end
$var wire 32 n BranchTarget [31:0] $end
$var wire 32 o ALUoperand2 [31:0] $end
$var wire 32 p ALUoperand1 [31:0] $end
$var wire 1 q ALUSrc $end
$var wire 2 r ALUOp [1:0] $end
$var wire 3 s ALUCtrlSig [2:0] $end
$scope module ALU $end
$var wire 32 t data2_i [31:0] $end
$var wire 32 u data1_i [31:0] $end
$var wire 3 v ALUCtrl_i [2:0] $end
$var reg 32 w data_o [31:0] $end
$upscope $end
$scope module ALU_Control $end
$var wire 10 x funct_i [9:0] $end
$var wire 2 y ALUOp_i [1:0] $end
$var reg 3 z ALUCtrl_o [2:0] $end
$upscope $end
$scope module Add_PC $end
$var wire 32 { data2_i [31:0] $end
$var wire 32 | data_o [31:0] $end
$var wire 32 } data1_i [31:0] $end
$var reg 32 ~ data_o_reg [31:0] $end
$upscope $end
$scope module Bh_Adder $end
$var wire 32 !" data_o [31:0] $end
$var wire 32 "" data2_i [31:0] $end
$var wire 32 #" data1_i [31:0] $end
$var reg 32 $" data_o_reg [31:0] $end
$upscope $end
$scope module Control $end
$var wire 7 %" Op_i [6:0] $end
$var wire 1 g NoOp_i $end
$var reg 2 &" ALUOp_o [1:0] $end
$var reg 1 q ALUSrc_o $end
$var reg 1 H Branch_o $end
$var reg 1 j MemRead_o $end
$var reg 1 i MemWrite_o $end
$var reg 1 h MemtoReg_o $end
$var reg 1 d RegWrite_o $end
$upscope $end
$scope module EXMEM $end
$var wire 1 ' clk_i $end
$var wire 32 '" exALUresult [31:0] $end
$var wire 1 @ memStall_i $end
$var wire 32 (" expreALUd2 [31:0] $end
$var wire 1 R exRegWrite $end
$var wire 5 )" exRd [4:0] $end
$var wire 1 T exMemtoReg $end
$var wire 1 U exMemWrite $end
$var wire 1 V exMemRead $end
$var reg 32 *" memALUresult [31:0] $end
$var reg 1 E memMemRead $end
$var reg 1 D memMemWrite $end
$var reg 1 C memMemtoReg $end
$var reg 5 +" memRd [4:0] $end
$var reg 1 A memRegWrite $end
$var reg 32 ," mempreALUd2 [31:0] $end
$upscope $end
$scope module FW $end
$var wire 5 -" memRd_i [4:0] $end
$var wire 1 A memRegWrite_i $end
$var wire 1 8 wbRegWrite_i $end
$var wire 5 ." wbRd_i [4:0] $end
$var wire 5 /" exRs2_i [4:0] $end
$var wire 5 0" exRs1_i [4:0] $end
$var reg 2 1" ForwardA_o [1:0] $end
$var reg 2 2" ForwardB_o [1:0] $end
$upscope $end
$scope module HzDetectionUnit $end
$var wire 5 3" IDRs1_i [4:0] $end
$var wire 5 4" IDRs2_i [4:0] $end
$var wire 1 b Stall_o $end
$var wire 1 e PCWrite_o $end
$var wire 1 g NoOp_o $end
$var wire 5 5" EXRd_i [4:0] $end
$var wire 1 V EXMemRead_i $end
$var reg 1 6" flag $end
$upscope $end
$scope module IDEX $end
$var wire 1 ' clk_i $end
$var wire 2 7" idALUOp_i [1:0] $end
$var wire 1 q idALUSrc_i $end
$var wire 1 j idMemRead_i $end
$var wire 1 i idMemWrite_i $end
$var wire 1 h idMemtoReg_i $end
$var wire 5 8" idRd_i [4:0] $end
$var wire 1 d idRegWrite_i $end
$var wire 10 9" idfunc10_i [9:0] $end
$var wire 5 :" idrs1_i [4:0] $end
$var wire 5 ;" idrs2_i [4:0] $end
$var wire 1 @ memStall_i $end
$var wire 32 <" iddata2_i [31:0] $end
$var wire 32 =" iddata1_i [31:0] $end
$var wire 32 >" idImm_i [31:0] $end
$var reg 2 ?" exALUOp_o [1:0] $end
$var reg 1 X exALUSrc_o $end
$var reg 32 @" exImm_o [31:0] $end
$var reg 1 V exMemRead_o $end
$var reg 1 U exMemWrite_o $end
$var reg 1 T exMemtoReg_o $end
$var reg 5 A" exRd_o [4:0] $end
$var reg 1 R exRegWrite_o $end
$var reg 32 B" exdata1_o [31:0] $end
$var reg 32 C" exdata2_o [31:0] $end
$var reg 10 D" exfunc10_o [9:0] $end
$var reg 5 E" exrs1_o [4:0] $end
$var reg 5 F" exrs2_o [4:0] $end
$upscope $end
$scope module IFID $end
$var wire 1 6 Flush_i $end
$var wire 1 b Stall_i $end
$var wire 1 ' clk_i $end
$var wire 32 G" harmless_op [31:0] $end
$var wire 32 H" nowPC_i [31:0] $end
$var wire 1 @ memStall_i $end
$var wire 32 I" instr_i [31:0] $end
$var reg 32 J" PCval_o [31:0] $end
$var reg 32 K" instr_o [31:0] $end
$upscope $end
$scope module Instruction_Memory $end
$var wire 32 L" instr_o [31:0] $end
$var wire 32 M" addr_i [31:0] $end
$upscope $end
$scope module MEMWB $end
$var wire 1 ' clk_i $end
$var wire 32 N" memALUResult [31:0] $end
$var wire 1 C memMemtoReg $end
$var wire 5 O" memRd [4:0] $end
$var wire 1 A memRegWrite $end
$var wire 1 @ memStall_i $end
$var wire 32 P" memDMdata [31:0] $end
$var reg 32 Q" wbALUResult [31:0] $end
$var reg 32 R" wbDMdata [31:0] $end
$var reg 1 : wbMemtoReg $end
$var reg 5 S" wbRd [4:0] $end
$var reg 1 8 wbRegWrite $end
$upscope $end
$scope module MUX_ALU1 $end
$var wire 32 T" exdata_i [31:0] $end
$var wire 32 U" memALUResult_i [31:0] $end
$var wire 2 V" select_i [1:0] $end
$var wire 32 W" wbWriteData_i [31:0] $end
$var reg 32 X" data_o [31:0] $end
$upscope $end
$scope module MUX_ALU2 $end
$var wire 32 Y" exdata_i [31:0] $end
$var wire 32 Z" memALUResult_i [31:0] $end
$var wire 2 [" select_i [1:0] $end
$var wire 32 \" wbWriteData_i [31:0] $end
$var reg 32 ]" data_o [31:0] $end
$upscope $end
$scope module MUX_ALUSrc $end
$var wire 32 ^" data1_i [31:0] $end
$var wire 32 _" data2_i [31:0] $end
$var wire 1 X select_i $end
$var wire 32 `" data_o [31:0] $end
$upscope $end
$scope module MUX_MemtoReg $end
$var wire 32 a" data1_i [31:0] $end
$var wire 32 b" data2_i [31:0] $end
$var wire 1 : select_i $end
$var wire 32 c" data_o [31:0] $end
$upscope $end
$scope module PC $end
$var wire 1 e PCWrite_i $end
$var wire 1 ' clk_i $end
$var wire 1 ( rst_i $end
$var wire 1 b stall_i $end
$var wire 1 ) start_i $end
$var wire 32 d" pc_i [31:0] $end
$var wire 1 @ memStall_i $end
$var reg 32 e" pc_o [31:0] $end
$upscope $end
$scope module PCMUX $end
$var wire 32 f" data1_i [31:0] $end
$var wire 32 g" data2_i [31:0] $end
$var wire 1 6 select_i $end
$var wire 32 h" data_o [31:0] $end
$upscope $end
$scope module Registers $end
$var wire 5 i" RDaddr_i [4:0] $end
$var wire 32 j" RDdata_i [31:0] $end
$var wire 5 k" RS1addr_i [4:0] $end
$var wire 5 l" RS2addr_i [4:0] $end
$var wire 1 8 RegWrite_i $end
$var wire 1 ' clk_i $end
$var wire 32 m" RS2data_o [31:0] $end
$var wire 32 n" RS1data_o [31:0] $end
$upscope $end
$scope module Shifter $end
$var wire 32 o" data_o [31:0] $end
$var wire 32 p" data_i [31:0] $end
$upscope $end
$scope module Sign_Extend $end
$var wire 32 q" data_i [31:0] $end
$var wire 10 r" opfunc3 [9:0] $end
$var wire 32 s" data_o [31:0] $end
$var reg 12 t" imm [11:0] $end
$upscope $end
$scope module dcache $end
$var wire 1 u" cache_dirty $end
$var wire 1 v" cache_sram_enable $end
$var wire 4 w" cache_sram_index [3:0] $end
$var wire 1 x" cache_sram_write $end
$var wire 1 ' clk_i $end
$var wire 1 E cpu_MemRead_i $end
$var wire 1 D cpu_MemWrite_i $end
$var wire 32 y" cpu_addr_i [31:0] $end
$var wire 32 z" cpu_data_i [31:0] $end
$var wire 32 {" cpu_data_o [31:0] $end
$var wire 1 |" cpu_req $end
$var wire 1 @ cpu_stall_o $end
$var wire 1 4 mem_ack_i $end
$var wire 256 }" mem_data_i [255:0] $end
$var wire 256 ~" mem_data_o [255:0] $end
$var wire 1 \ mem_enable_o $end
$var wire 1 [ mem_write_o $end
$var wire 1 ( rst_i $end
$var wire 1 !# write_hit $end
$var wire 1 "# sram_valid $end
$var wire 23 ## sram_tag [22:0] $end
$var wire 1 $# sram_dirty $end
$var wire 25 %# sram_cache_tag [24:0] $end
$var wire 256 &# sram_cache_data [255:0] $end
$var wire 256 '# r_hit_data [255:0] $end
$var wire 32 (# mem_addr_o [31:0] $end
$var wire 1 )# hit $end
$var wire 23 *# cpu_tag [22:0] $end
$var wire 5 +# cpu_offset [4:0] $end
$var wire 4 ,# cpu_index [3:0] $end
$var wire 25 -# cache_sram_tag [24:0] $end
$var wire 256 .# cache_sram_data [255:0] $end
$var reg 1 /# cache_write $end
$var reg 32 0# cpu_data [31:0] $end
$var reg 1 \ mem_enable $end
$var reg 1 [ mem_write $end
$var reg 3 1# state [2:0] $end
$var reg 256 2# w_hit_data [255:0] $end
$var reg 1 3# write_back $end
$scope module dcache_sram $end
$var wire 4 4# addr_i [3:0] $end
$var wire 1 ' clk_i $end
$var wire 256 5# data_i [255:0] $end
$var wire 1 v" enable_i $end
$var wire 1 6# hit $end
$var wire 1 7# hit_w0 $end
$var wire 1 8# hit_w1 $end
$var wire 1 ( rst_i $end
$var wire 25 9# tag_i [24:0] $end
$var wire 1 :# validw $end
$var wire 1 x" write_i $end
$var wire 1 ;# vw1 $end
$var wire 1 <# vw0 $end
$var reg 256 =# data_o [255:0] $end
$var reg 1 )# hit_o $end
$var reg 25 ># tag_o [24:0] $end
$var integer 32 ?# i [31:0] $end
$var integer 32 @# j [31:0] $end
$upscope $end
$upscope $end
$upscope $end
$scope module Data_Memory $end
$var wire 1 " ack_o $end
$var wire 32 A# addr_i [31:0] $end
$var wire 1 ' clk_i $end
$var wire 256 B# data_i [255:0] $end
$var wire 256 C# data_o [255:0] $end
$var wire 1 $ enable_i $end
$var wire 1 ( rst_i $end
$var wire 1 # write_i $end
$var wire 27 D# addr [26:0] $end
$var reg 4 E# count [3:0] $end
$var reg 256 F# data [255:0] $end
$var reg 2 G# state [1:0] $end
$upscope $end
$upscope $end
$enddefinitions $end
#0
$dumpvars
b0 G#
bx F#
b0 E#
bx D#
bx C#
bx B#
bx00000 A#
b10 @#
b10000 ?#
bx >#
bx =#
x<#
x;#
x:#
b1xxxxxxxxxxxxxxxxxxxxxxxx 9#
x8#
x7#
x6#
bx 5#
bx 4#
03#
bx 2#
b0 1#
bx 0#
0/#
bx .#
b1xxxxxxxxxxxxxxxxxxxxxxxx -#
bx ,#
bx +#
bx *#
x)#
bx00000 (#
bx '#
bx &#
bx %#
x$#
bx ##
x"#
x!#
bx ~"
bx }"
x|"
bx {"
bx z"
bx y"
xx"
bx w"
xv"
xu"
bx t"
bx s"
bx r"
bx q"
bx p"
bx0 o"
bx n"
bx m"
bx l"
bx k"
bx j"
bx i"
b100 h"
bx g"
b100 f"
b0 e"
b100 d"
bx c"
bx b"
bx a"
bx `"
bx _"
bx ^"
bx ]"
bx \"
bx ["
bx Z"
bx Y"
bx X"
bx W"
bx V"
bx U"
bx T"
bx S"
bx R"
bx Q"
bx P"
bx O"
bx N"
b0 M"
bx L"
bx K"
bx J"
bx I"
b0 H"
b1000000110011 G"
bx F"
bx E"
bx D"
bx C"
bx B"
bx A"
bx @"
bx ?"
bx >"
bx ="
bx <"
bx ;"
bx :"
bx 9"
bx 8"
b10 7"
06"
bx 5"
bx 4"
bx 3"
bx 2"
bx 1"
bx 0"
bx /"
bx ."
bx -"
bx ,"
bx +"
bx *"
bx )"
bx ("
bx '"
b10 &"
bx %"
bx $"
bx #"
bx0 ""
bx !"
b100 ~
b0 }
b100 |
b100 {
bx z
bx y
bx x
bx w
bx v
bx u
bx t
bx s
b10 r
0q
bx p
bx o
bx n
bx m
bx l
bx k
0j
0i
0h
0g
b100 f
1e
0d
bx0 c
0b
b0 a
bx `
bx _
bx00000 ^
bx ]
0\
0[
bx Z
bx Y
xX
bx W
xV
xU
xT
bx S
xR
bx Q
bx P
bx O
bx N
bx M
bx L
bx K
bx J
bx I
0H
bx G
bx F
xE
xD
xC
bx B
xA
x@
bx ?
bx >
b100 =
bx <
bx ;
x:
bx 9
x8
bx 7
06
bx 5
04
bx 3
bx00000 2
b100 1
bx 0
bx /
bx .
bx -
b0 ,
bx +
x*
0)
1(
0'
bx00000 &
bx %
0$
0#
0"
bx !
$end
#12
0)#
b0 D#
06#
1:#
b0 n
b0 !"
b0 $"
b0 g"
07#
08#
b0 Y
b0 w
b0 '"
b0 &
b0 2
b0 A#
b0 ^
b0 (#
0<#
0;#
0x"
0@
b0 o
b0 t
b0 `"
b0 c
b0 ""
b0 o"
b0 _
b0 <"
b0 m"
b0 `
b0 ="
b0 n"
b0 7
b0 W"
b0 \"
b0 c"
b0 j"
b0 *#
b0 w"
b0 4#
b0 ,#
b0 +#
b1000000000000000000000000 -#
b1000000000000000000000000 9#
0u"
0!#
0v"
0|"
b0 l
b0 2"
b0 ["
b0 m
b0 1"
b0 V"
b0 N
b0 ("
b0 ]"
b0 ^"
b0 p
b0 u
b0 X"
b11 s
b11 v
b11 z
b0 K
b0 >"
b0 p"
b0 s"
b0 t"
b0 r"
b0 8"
b0 ;"
b0 :"
b0 9"
b0 4"
b0 3"
b0 l"
b0 k"
b0 %"
b101 0
b11 /
b0 9
b0 ."
b0 S"
b0 i"
b0 ;
b0 R"
b0 b"
b0 <
b0 Q"
b0 a"
0:
08
b0 B
b0 +"
b0 -"
b0 O"
b0 >
b0 ,"
b0 z"
b0 G
b0 *"
b0 N"
b0 U"
b0 Z"
b0 y"
0D
0E
0C
0A
b0 S
b0 )"
b0 5"
b0 A"
b0 L
b0 /"
b0 F"
b0 M
b0 0"
b0 E"
b0 O
b0 x
b0 D"
b0 W
b0 @"
b0 _"
b0 P
b0 C"
b0 Y"
b0 Q
b0 B"
b0 T"
0X
b0 Z
b0 y
b0 ?"
0U
0V
0T
0R
b0 I
b0 K"
b0 q"
b0 k
b0 #"
b0 J"
bx F
bx P"
bx {"
bx 0#
bx00000000000000000000000000000000 2#
b10 .
b10011110000011 J
b10011110000011 I"
b10011110000011 L"
b1000000000 -
1)
0(
#25
1j
1h
1d
b0 r
b0 &"
b0 7"
1q
b1000 f
b1000 d"
b1000 h"
b11010 r"
b1111 8"
b10 9"
b11 %"
b10000000010011100000011 J
b10000000010011100000011 I"
b10000000010011100000011 L"
b1000 =
b1000 |
b1000 ~
b1000 f"
b10011110000011 I
b10011110000011 K"
b10011110000011 q"
b10 Z
b10 y
b10 ?"
bx ;
bx R"
bx b"
b100 a
b100 }
b100 H"
b100 M"
b100 e"
b1 ,
0*
1'
#50
0'
#75
b1000 c
b1000 ""
b1000 o"
b1100 f
b1100 d"
b1100 h"
b1100 n
b1100 !"
b1100 $"
b1100 g"
b100 K
b100 >"
b100 p"
b100 s"
b100 t"
b1110 8"
b100 ;"
b100 4"
b100 l"
b100000000010011010000011 J
b100000000010011010000011 I"
b100000000010011010000011 L"
b1100 =
b1100 |
b1100 ~
b1100 f"
b1111 S
b1111 )"
b1111 5"
b1111 A"
b10 O
b10 x
b10 D"
1X
b0 Z
b0 y
b0 ?"
1V
1T
1R
b100 k
b100 #"
b100 J"
b10000000010011100000011 I
b10000000010011100000011 K"
b10000000010011100000011 q"
b1000 a
b1000 }
b1000 H"
b1000 M"
b1000 e"
b10 ,
1'
#100
0'
#125
b10000 c
b10000 ""
b10000 o"
b100 Y
b100 w
b100 '"
1@
b10000 f
b10000 d"
b10000 h"
b11000 n
b11000 !"
b11000 $"
b11000 g"
b1000 K
b1000 >"
b1000 p"
b1000 s"
b1000 t"
b1101 8"
b1000 ;"
b1000 4"
b1000 l"
b100 o
b100 t
b100 `"
1v"
1|"
b110000000010011000000011 J
b110000000010011000000011 I"
b110000000010011000000011 L"
b10000 =
b10000 |
b10000 ~
b10000 f"
b1000 k
b1000 #"
b1000 J"
b100000000010011010000011 I
b100000000010011010000011 K"
b100000000010011010000011 q"
b1110 S
b1110 )"
b1110 5"
b1110 A"
b100 L
b100 /"
b100 F"
b100 W
b100 @"
b100 _"
b1111 B
b1111 +"
b1111 -"
b1111 O"
1E
1C
1A
b1100 a
b1100 }
b1100 H"
b1100 M"
b1100 e"
b11 ,
1'
#150
0'
#175
b0 ##
0$#
1"#
b1000000000000000000000000 %#
b1000000000000000000000000 >#
b100 1#
b100 ,
1*
1'
#200
0'
#225
b1 1#
1$
1\
b101 ,
1'
#250
0'
#275
b1 E#
b1 G#
b110 ,
1'
#300
0'
#325
b10 E#
b111 ,
1'
#350
0'
#375
b11 E#
b1000 ,
1'
#400
0'
#425
b100 E#
b1001 ,
1'
#450
0'
#475
b101 E#
b1010 ,
1'
#500
0'
#525
b110 E#
b1011 ,
1'
#550
0'
#575
b111 E#
b1100 ,
1'
#600
0'
#625
b1000 E#
b1101 ,
1'
#650
0'
#675
14
1"
b1001 E#
b1110 ,
1'
#700
0'
#725
04
0"
1x"
b0 E#
b0 G#
b10 1#
1/#
b100010001000100100010001000100011001100110011010001000100010001010101010101010110011001100110011101110111011110001000100010001001100110011001101010101010101010111011101110111100110011001100110111011101110100000000000000000000000000000000 2#
b11101110111011101111111111111111 F
b11101110111011101111111111111111 P"
b11101110111011101111111111111111 {"
b11101110111011101111111111111111 0#
b100010001000100100010001000100011001100110011010001000100010001010101010101010110011001100110011101110111011110001000100010001001100110011001101010101010101010111011101110111100110011001100110111011101110111101110111011101111111111111111 .#
b100010001000100100010001000100011001100110011010001000100010001010101010101010110011001100110011101110111011110001000100010001001100110011001101010101010101010111011101110111100110011001100110111011101110111101110111011101111111111111111 5#
b100010001000100100010001000100011001100110011010001000100010001010101010101010110011001100110011101110111011110001000100010001001100110011001101010101010101010111011101110111100110011001100110111011101110111101110111011101111111111111111 '#
b100010001000100100010001000100011001100110011010001000100010001010101010101010110011001100110011101110111011110001000100010001001100110011001101010101010101010111011101110111100110011001100110111011101110111101110111011101111111111111111 5
b100010001000100100010001000100011001100110011010001000100010001010101010101010110011001100110011101110111011110001000100010001001100110011001101010101010101010111011101110111100110011001100110111011101110111101110111011101111111111111111 }"
b100010001000100100010001000100011001100110011010001000100010001010101010101010110011001100110011101110111011110001000100010001001100110011001101010101010101010111011101110111100110011001100110111011101110111101110111011101111111111111111 !
b100010001000100100010001000100011001100110011010001000100010001010101010101010110011001100110011101110111011110001000100010001001100110011001101010101010101010111011101110111100110011001100110111011101110111101110111011101111111111111111 ?
b100010001000100100010001000100011001100110011010001000100010001010101010101010110011001100110011101110111011110001000100010001001100110011001101010101010101010111011101110111100110011001100110111011101110111101110111011101111111111111111 C#
b100010001000100100010001000100011001100110011010001000100010001010101010101010110011001100110011101110111011110001000100010001001100110011001101010101010101010111011101110111100110011001100110111011101110111101110111011101111111111111111 F#
b1111 ,
1'
#750
0'
#775
b0 2#
b0 F
b0 P"
b0 {"
b0 0#
0@
b0 '#
b0 .#
b0 5#
1)#
16#
17#
0"#
1<#
0x"
b0 %#
b0 >#
b0 %
b0 3
b0 B#
b0 ]
b0 ~"
b0 &#
b0 =#
b0 1#
0/#
0$
0\
b1 E#
b1 G#
b10000 ,
1'
#800
0'
#825
b100010001000100100010001000100011001100110011010001000100010001010101010101010110011001100110011101110111011110001000100010001001100110011001101010101010101010111011101110110000000000000000000000000000000011101110111011101111111111111111 .#
b100010001000100100010001000100011001100110011010001000100010001010101010101010110011001100110011101110111011110001000100010001001100110011001101010101010101010111011101110110000000000000000000000000000000011101110111011101111111111111111 5#
b11000 c
b11000 ""
b11000 o"
b1000 Y
b1000 w
b1000 '"
b100010001000100100010001000100011001100110011010001000100010001010101010101010110011001100110011101110111011110001000100010001001100110011001101010101010101010111011101110110000000000000000000000000000000011101110111011101111111111111111 2#
b11001100110011001101110111011101 F
b11001100110011001101110111011101 P"
b11001100110011001101110111011101 {"
b11001100110011001101110111011101 0#
b10100 f
b10100 d"
b10100 h"
b100100 n
b100100 !"
b100100 $"
b100100 g"
b1100 K
b1100 >"
b1100 p"
b1100 s"
b1100 t"
b1100 8"
b1100 ;"
b1100 4"
b1100 l"
b1000 o
b1000 t
b1000 `"
b100 +#
b100010001000100100010001000100011001100110011010001000100010001010101010101010110011001100110011101110111011110001000100010001001100110011001101010101010101010111011101110111100110011001100110111011101110111101110111011101111111111111111 '#
1"#
b1000000000010010110000011 J
b1000000000010010110000011 I"
b1000000000010010110000011 L"
b10100 =
b10100 |
b10100 ~
b10100 f"
b1100 k
b1100 #"
b1100 J"
b110000000010011000000011 I
b110000000010011000000011 K"
b110000000010011000000011 q"
b1101 S
b1101 )"
b1101 5"
b1101 A"
b1000 L
b1000 /"
b1000 F"
b1000 W
b1000 @"
b1000 _"
b1110 B
b1110 +"
b1110 -"
b1110 O"
b100 G
b100 *"
b100 N"
b100 U"
b100 Z"
b100 y"
b1111 9
b1111 ."
b1111 S"
b1111 i"
b0 ;
b0 R"
b0 b"
1:
18
b10 E#
b100010001000100100010001000100011001100110011010001000100010001010101010101010110011001100110011101110111011110001000100010001001100110011001101010101010101010111011101110111100110011001100110111011101110111101110111011101111111111111111 %
b100010001000100100010001000100011001100110011010001000100010001010101010101010110011001100110011101110111011110001000100010001001100110011001101010101010101010111011101110111100110011001100110111011101110111101110111011101111111111111111 3
b100010001000100100010001000100011001100110011010001000100010001010101010101010110011001100110011101110111011110001000100010001001100110011001101010101010101010111011101110111100110011001100110111011101110111101110111011101111111111111111 B#
b100010001000100100010001000100011001100110011010001000100010001010101010101010110011001100110011101110111011110001000100010001001100110011001101010101010101010111011101110111100110011001100110111011101110111101110111011101111111111111111 ]
b100010001000100100010001000100011001100110011010001000100010001010101010101010110011001100110011101110111011110001000100010001001100110011001101010101010101010111011101110111100110011001100110111011101110111101110111011101111111111111111 ~"
b100010001000100100010001000100011001100110011010001000100010001010101010101010110011001100110011101110111011110001000100010001001100110011001101010101010101010111011101110111100110011001100110111011101110111101110111011101111111111111111 &#
b100010001000100100010001000100011001100110011010001000100010001010101010101010110011001100110011101110111011110001000100010001001100110011001101010101010101010111011101110111100110011001100110111011101110111101110111011101111111111111111 =#
b1000000000000000000000000 %#
b1000000000000000000000000 >#
b10000 a
b10000 }
b10000 H"
b10000 M"
b10000 e"
b10001 ,
0*
1'
#850
0'
#875
b100010001000100100010001000100011001100110011010001000100010001010101010101010110011001100110011101110111011110001000100010001001100110011001000000000000000000000000000000001100110011001100110111011101110111101110111011101111111111111111 .#
b100010001000100100010001000100011001100110011010001000100010001010101010101010110011001100110011101110111011110001000100010001001100110011001000000000000000000000000000000001100110011001100110111011101110111101110111011101111111111111111 5#
b100010001000100100010001000100011001100110011010001000100010001010101010101010110011001100110011101110111011110001000100010001001100110011001000000000000000000000000000000001100110011001100110111011101110111101110111011101111111111111111 2#
b10101010101010101011101110111011 F
b10101010101010101011101110111011 P"
b10101010101010101011101110111011 {"
b10101010101010101011101110111011 0#
b1100 Y
b1100 w
b1100 '"
b100000 c
b100000 ""
b100000 o"
b11000 f
b11000 d"
b11000 h"
b11001100110011001101110111011101 7
b11001100110011001101110111011101 W"
b11001100110011001101110111011101 \"
b11001100110011001101110111011101 c"
b11001100110011001101110111011101 j"
b1000 +#
b1100 o
b1100 t
b1100 `"
b110000 n
b110000 !"
b110000 $"
b110000 g"
b10000 K
b10000 >"
b10000 p"
b10000 s"
b10000 t"
b1011 8"
b10000 ;"
b10000 4"
b10000 l"
b1010000000010010100000011 J
b1010000000010010100000011 I"
b1010000000010010100000011 L"
b11000 =
b11000 |
b11000 ~
b11000 f"
b1110 9
b1110 ."
b1110 S"
b1110 i"
b11001100110011001101110111011101 ;
b11001100110011001101110111011101 R"
b11001100110011001101110111011101 b"
b100 <
b100 Q"
b100 a"
b1101 B
b1101 +"
b1101 -"
b1101 O"
b1000 G
b1000 *"
b1000 N"
b1000 U"
b1000 Z"
b1000 y"
b1100 S
b1100 )"
b1100 5"
b1100 A"
b1100 L
b1100 /"
b1100 F"
b1100 W
b1100 @"
b1100 _"
b10000 k
b10000 #"
b10000 J"
b1000000000010010110000011 I
b1000000000010010110000011 K"
b1000000000010010110000011 q"
b10100 a
b10100 }
b10100 H"
b10100 M"
b10100 e"
b11 E#
b10010 ,
1'
#900
0'
#925
b100010001000100100010001000100011001100110011010001000100010001010101010101010110011001100110011101110111011100000000000000000000000000000000101010101010101010111011101110111100110011001100110111011101110111101110111011101111111111111111 .#
b100010001000100100010001000100011001100110011010001000100010001010101010101010110011001100110011101110111011100000000000000000000000000000000101010101010101010111011101110111100110011001100110111011101110111101110111011101111111111111111 5#
b101000 c
b101000 ""
b101000 o"
b10000 Y
b10000 w
b10000 '"
b100010001000100100010001000100011001100110011010001000100010001010101010101010110011001100110011101110111011100000000000000000000000000000000101010101010101010111011101110111100110011001100110111011101110111101110111011101111111111111111 2#
b10001000100010001001100110011001 F
b10001000100010001001100110011001 P"
b10001000100010001001100110011001 {"
b10001000100010001001100110011001 0#
b11100 f
b11100 d"
b11100 h"
b111100 n
b111100 !"
b111100 $"
b111100 g"
b10100 K
b10100 >"
b10100 p"
b10100 s"
b10100 t"
b1010 8"
b10100 ;"
b10100 4"
b10100 l"
b10000 o
b10000 t
b10000 `"
b1100 +#
b10101010101010101011101110111011 7
b10101010101010101011101110111011 W"
b10101010101010101011101110111011 \"
b10101010101010101011101110111011 c"
b10101010101010101011101110111011 j"
b1100000000010010010000011 J
b1100000000010010010000011 I"
b1100000000010010010000011 L"
b11100 =
b11100 |
b11100 ~
b11100 f"
b10100 k
b10100 #"
b10100 J"
b1010000000010010100000011 I
b1010000000010010100000011 K"
b1010000000010010100000011 q"
b1011 S
b1011 )"
b1011 5"
b1011 A"
b10000 L
b10000 /"
b10000 F"
b10000 W
b10000 @"
b10000 _"
b1100 B
b1100 +"
b1100 -"
b1100 O"
b1100 G
b1100 *"
b1100 N"
b1100 U"
b1100 Z"
b1100 y"
b1101 9
b1101 ."
b1101 S"
b1101 i"
b10101010101010101011101110111011 ;
b10101010101010101011101110111011 R"
b10101010101010101011101110111011 b"
b1000 <
b1000 Q"
b1000 a"
b100 E#
b11000 a
b11000 }
b11000 H"
b11000 M"
b11000 e"
b10011 ,
1'
#950
0'
