codes/CPU.vcd
$date
	Fri Jan 14 00:17:06 2022
$end
$version
	Icarus Verilog
$end
$timescale
	1s
$end
$scope module testbench $end
$var wire 256 ! mem_cpu_data [255:0] $end
$var wire 1 " mem_cpu_ack $end
$var wire 1 # cpu_mem_write $end
$var wire 1 $ cpu_mem_enable $end
$var wire 256 % cpu_mem_data [255:0] $end
$var wire 32 & cpu_mem_addr [31:0] $end
$var reg 1 ' Clk $end
$var reg 1 ( Reset $end
$var reg 1 ) Start $end
$var reg 27 * address [26:0] $end
$var reg 1 + flag $end
$var reg 4 , index [3:0] $end
$var reg 24 - tag [23:0] $end
$var integer 32 . counter [31:0] $end
$var integer 32 / i [31:0] $end
$var integer 32 0 j [31:0] $end
$var integer 32 1 outfile [31:0] $end
$var integer 32 2 outfile2 [31:0] $end
$scope module CPU $end
$var wire 1 ' clk_i $end
$var wire 32 3 const4 [31:0] $end
$var wire 32 4 mem_addr_o [31:0] $end
$var wire 256 5 mem_data_o [255:0] $end
$var wire 1 $ mem_enable_o $end
$var wire 1 6 mem_to_dcache_ack $end
$var wire 256 7 mem_to_dcache_data [255:0] $end
$var wire 1 # mem_write_o $end
$var wire 1 ( rst_i $end
$var wire 1 ) start_i $end
$var wire 1 8 toFlush $end
$var wire 32 9 wbWriteData [31:0] $end
$var wire 1 : wbRegWrite $end
$var wire 5 ; wbRd [4:0] $end
$var wire 1 < wbMemtoReg $end
$var wire 32 = wbDMdata [31:0] $end
$var wire 32 > wbALUResult [31:0] $end
$var wire 32 ? update_addr [31:0] $end
$var wire 32 @ mempreALUd2 [31:0] $end
$var wire 256 A mem_data_i [255:0] $end
$var wire 1 " mem_ack_i $end
$var wire 1 B memStall $end
$var wire 1 C memRegWrite $end
$var wire 5 D memRd [4:0] $end
$var wire 1 E memMemtoReg $end
$var wire 1 F memMemWrite $end
$var wire 1 G memMemRead $end
$var wire 32 H memDCdata [31:0] $end
$var wire 32 I memALUResult [31:0] $end
$var wire 1 J isBranch $end
$var wire 32 K instr_2 [31:0] $end
$var wire 32 L instr [31:0] $end
$var wire 32 M ext_immed [31:0] $end
$var wire 5 N exrs2 [4:0] $end
$var wire 5 O exrs1 [4:0] $end
$var wire 32 P expreALUd2 [31:0] $end
$var wire 10 Q exfunc10 [9:0] $end
$var wire 32 R exdata2 [31:0] $end
$var wire 32 S exdata1 [31:0] $end
$var wire 1 T exRegWrite $end
$var wire 5 U exRd [4:0] $end
$var wire 1 V exMemtoreg $end
$var wire 1 W exMemWrite $end
$var wire 1 X exMemRead $end
$var wire 32 Y exImm [31:0] $end
$var wire 1 Z exALUSrc $end
$var wire 32 [ exALUResult [31:0] $end
$var wire 2 \ exALUOp [1:0] $end
$var wire 1 ] dcache_to_mem_write $end
$var wire 1 ^ dcache_to_mem_enable $end
$var wire 256 _ dcache_to_mem_data [255:0] $end
$var wire 32 ` dcache_to_mem_addr [31:0] $end
$var wire 32 a data2 [31:0] $end
$var wire 32 b data1 [31:0] $end
$var wire 32 c addr [31:0] $end
$var wire 1 d Stall $end
$var wire 32 e Sext_immed [31:0] $end
$var wire 1 f RegWrite $end
$var wire 1 g PCWrite $end
$var wire 32 h PCMUXvalue [31:0] $end
$var wire 1 i NoOp $end
$var wire 1 j MemtoReg $end
$var wire 1 k MemWrite $end
$var wire 1 l MemRead $end
$var wire 32 m IFpcvalue [31:0] $end
$var wire 2 n ForwardB [1:0] $end
$var wire 2 o ForwardA [1:0] $end
$var wire 32 p BranchTarget [31:0] $end
$var wire 32 q ALUoperand2 [31:0] $end
$var wire 32 r ALUoperand1 [31:0] $end
$var wire 1 s ALUSrc $end
$var wire 2 t ALUOp [1:0] $end
$var wire 3 u ALUCtrlSig [2:0] $end
$scope module ALU $end
$var wire 32 v data2_i [31:0] $end
$var wire 32 w data1_i [31:0] $end
$var wire 3 x ALUCtrl_i [2:0] $end
$var reg 32 y data_o [31:0] $end
$upscope $end
$scope module ALU_Control $end
$var wire 10 z funct_i [9:0] $end
$var wire 2 { ALUOp_i [1:0] $end
$var reg 3 | ALUCtrl_o [2:0] $end
$upscope $end
$scope module Add_PC $end
$var wire 32 } data2_i [31:0] $end
$var wire 32 ~ data_o [31:0] $end
$var wire 32 !" data1_i [31:0] $end
$var reg 32 "" data_o_reg [31:0] $end
$upscope $end
$scope module Bh_Adder $end
$var wire 32 #" data_o [31:0] $end
$var wire 32 $" data2_i [31:0] $end
$var wire 32 %" data1_i [31:0] $end
$var reg 32 &" data_o_reg [31:0] $end
$upscope $end
$scope module Control $end
$var wire 7 '" Op_i [6:0] $end
$var wire 1 i NoOp_i $end
$var reg 2 (" ALUOp_o [1:0] $end
$var reg 1 s ALUSrc_o $end
$var reg 1 J Branch_o $end
$var reg 1 l MemRead_o $end
$var reg 1 k MemWrite_o $end
$var reg 1 j MemtoReg_o $end
$var reg 1 f RegWrite_o $end
$upscope $end
$scope module EXMEM $end
$var wire 1 ' clk_i $end
$var wire 32 )" exALUresult [31:0] $end
$var wire 1 B memStall_i $end
$var wire 32 *" expreALUd2 [31:0] $end
$var wire 1 T exRegWrite $end
$var wire 5 +" exRd [4:0] $end
$var wire 1 V exMemtoReg $end
$var wire 1 W exMemWrite $end
$var wire 1 X exMemRead $end
$var reg 32 ," memALUresult [31:0] $end
$var reg 1 G memMemRead $end
$var reg 1 F memMemWrite $end
$var reg 1 E memMemtoReg $end
$var reg 5 -" memRd [4:0] $end
$var reg 1 C memRegWrite $end
$var reg 32 ." mempreALUd2 [31:0] $end
$upscope $end
$scope module FW $end
$var wire 5 /" memRd_i [4:0] $end
$var wire 1 C memRegWrite_i $end
$var wire 1 : wbRegWrite_i $end
$var wire 5 0" wbRd_i [4:0] $end
$var wire 5 1" exRs2_i [4:0] $end
$var wire 5 2" exRs1_i [4:0] $end
$var reg 2 3" ForwardA_o [1:0] $end
$var reg 2 4" ForwardB_o [1:0] $end
$upscope $end
$scope module HzDetectionUnit $end
$var wire 5 5" IDRs1_i [4:0] $end
$var wire 5 6" IDRs2_i [4:0] $end
$var wire 1 d Stall_o $end
$var wire 1 g PCWrite_o $end
$var wire 1 i NoOp_o $end
$var wire 5 7" EXRd_i [4:0] $end
$var wire 1 X EXMemRead_i $end
$var reg 1 8" flag $end
$upscope $end
$scope module IDEX $end
$var wire 1 ' clk_i $end
$var wire 2 9" idALUOp_i [1:0] $end
$var wire 1 s idALUSrc_i $end
$var wire 1 l idMemRead_i $end
$var wire 1 k idMemWrite_i $end
$var wire 1 j idMemtoReg_i $end
$var wire 5 :" idRd_i [4:0] $end
$var wire 1 f idRegWrite_i $end
$var wire 10 ;" idfunc10_i [9:0] $end
$var wire 5 <" idrs1_i [4:0] $end
$var wire 5 =" idrs2_i [4:0] $end
$var wire 1 B memStall_i $end
$var wire 32 >" iddata2_i [31:0] $end
$var wire 32 ?" iddata1_i [31:0] $end
$var wire 32 @" idImm_i [31:0] $end
$var reg 2 A" exALUOp_o [1:0] $end
$var reg 1 Z exALUSrc_o $end
$var reg 32 B" exImm_o [31:0] $end
$var reg 1 X exMemRead_o $end
$var reg 1 W exMemWrite_o $end
$var reg 1 V exMemtoReg_o $end
$var reg 5 C" exRd_o [4:0] $end
$var reg 1 T exRegWrite_o $end
$var reg 32 D" exdata1_o [31:0] $end
$var reg 32 E" exdata2_o [31:0] $end
$var reg 10 F" exfunc10_o [9:0] $end
$var reg 5 G" exrs1_o [4:0] $end
$var reg 5 H" exrs2_o [4:0] $end
$upscope $end
$scope module IFID $end
$var wire 1 8 Flush_i $end
$var wire 1 d Stall_i $end
$var wire 1 ' clk_i $end
$var wire 32 I" harmless_op [31:0] $end
$var wire 32 J" nowPC_i [31:0] $end
$var wire 1 B memStall_i $end
$var wire 32 K" instr_i [31:0] $end
$var reg 32 L" PCval_o [31:0] $end
$var reg 32 M" instr_o [31:0] $end
$upscope $end
$scope module Instruction_Memory $end
$var wire 32 N" instr_o [31:0] $end
$var wire 32 O" addr_i [31:0] $end
$upscope $end
$scope module MEMWB $end
$var wire 1 ' clk_i $end
$var wire 32 P" memALUResult [31:0] $end
$var wire 1 E memMemtoReg $end
$var wire 5 Q" memRd [4:0] $end
$var wire 1 C memRegWrite $end
$var wire 1 B memStall_i $end
$var wire 32 R" memDMdata [31:0] $end
$var reg 32 S" wbALUResult [31:0] $end
$var reg 32 T" wbDMdata [31:0] $end
$var reg 1 < wbMemtoReg $end
$var reg 5 U" wbRd [4:0] $end
$var reg 1 : wbRegWrite $end
$upscope $end
$scope module MUX_ALU1 $end
$var wire 32 V" exdata_i [31:0] $end
$var wire 32 W" memALUResult_i [31:0] $end
$var wire 2 X" select_i [1:0] $end
$var wire 32 Y" wbWriteData_i [31:0] $end
$var reg 32 Z" data_o [31:0] $end
$upscope $end
$scope module MUX_ALU2 $end
$var wire 32 [" exdata_i [31:0] $end
$var wire 32 \" memALUResult_i [31:0] $end
$var wire 2 ]" select_i [1:0] $end
$var wire 32 ^" wbWriteData_i [31:0] $end
$var reg 32 _" data_o [31:0] $end
$upscope $end
$scope module MUX_ALUSrc $end
$var wire 32 `" data1_i [31:0] $end
$var wire 32 a" data2_i [31:0] $end
$var wire 1 Z select_i $end
$var wire 32 b" data_o [31:0] $end
$upscope $end
$scope module MUX_MemtoReg $end
$var wire 32 c" data1_i [31:0] $end
$var wire 32 d" data2_i [31:0] $end
$var wire 1 < select_i $end
$var wire 32 e" data_o [31:0] $end
$upscope $end
$scope module PC $end
$var wire 1 g PCWrite_i $end
$var wire 1 ' clk_i $end
$var wire 1 ( rst_i $end
$var wire 1 d stall_i $end
$var wire 1 ) start_i $end
$var wire 32 f" pc_i [31:0] $end
$var wire 1 B memStall_i $end
$var reg 32 g" pc_o [31:0] $end
$upscope $end
$scope module PCMUX $end
$var wire 32 h" data1_i [31:0] $end
$var wire 32 i" data2_i [31:0] $end
$var wire 1 8 select_i $end
$var wire 32 j" data_o [31:0] $end
$upscope $end
$scope module Registers $end
$var wire 5 k" RDaddr_i [4:0] $end
$var wire 32 l" RDdata_i [31:0] $end
$var wire 5 m" RS1addr_i [4:0] $end
$var wire 5 n" RS2addr_i [4:0] $end
$var wire 1 : RegWrite_i $end
$var wire 1 ' clk_i $end
$var wire 32 o" RS2data_o [31:0] $end
$var wire 32 p" RS1data_o [31:0] $end
$upscope $end
$scope module Shifter $end
$var wire 32 q" data_o [31:0] $end
$var wire 32 r" data_i [31:0] $end
$upscope $end
$scope module Sign_Extend $end
$var wire 32 s" data_i [31:0] $end
$var wire 10 t" opfunc3 [9:0] $end
$var wire 32 u" data_o [31:0] $end
$var reg 12 v" imm [11:0] $end
$upscope $end
$scope module dcache $end
$var wire 1 w" cache_dirty $end
$var wire 1 x" cache_sram_enable $end
$var wire 4 y" cache_sram_index [3:0] $end
$var wire 1 z" cache_sram_write $end
$var wire 1 ' clk_i $end
$var wire 1 G cpu_MemRead_i $end
$var wire 1 F cpu_MemWrite_i $end
$var wire 32 {" cpu_addr_i [31:0] $end
$var wire 32 |" cpu_data_i [31:0] $end
$var wire 32 }" cpu_data_o [31:0] $end
$var wire 1 ~" cpu_req $end
$var wire 1 B cpu_stall_o $end
$var wire 1 6 mem_ack_i $end
$var wire 256 !# mem_data_i [255:0] $end
$var wire 256 "# mem_data_o [255:0] $end
$var wire 1 ^ mem_enable_o $end
$var wire 1 ] mem_write_o $end
$var wire 256 ## r_hit_data [255:0] $end
$var wire 1 ( rst_i $end
$var wire 1 $# write_hit $end
$var wire 1 %# sram_valid $end
$var wire 23 &# sram_tag [22:0] $end
$var wire 1 '# sram_dirty $end
$var wire 25 (# sram_cache_tag [24:0] $end
$var wire 256 )# sram_cache_data [255:0] $end
$var wire 32 *# mem_addr_o [31:0] $end
$var wire 1 +# hit $end
$var wire 23 ,# cpu_tag [22:0] $end
$var wire 5 -# cpu_offset [4:0] $end
$var wire 4 .# cpu_index [3:0] $end
$var wire 25 /# cache_sram_tag [24:0] $end
$var wire 256 0# cache_sram_data [255:0] $end
$var reg 1 1# cache_write $end
$var reg 32 2# cpu_data [31:0] $end
$var reg 1 ^ mem_enable $end
$var reg 1 ] mem_write $end
$var reg 3 3# state [2:0] $end
$var reg 256 4# w_hit_data [255:0] $end
$var reg 1 5# write_back $end
$scope module dcache_sram $end
$var wire 4 6# addr_i [3:0] $end
$var wire 1 ' clk_i $end
$var wire 256 7# data_i [255:0] $end
$var wire 1 x" enable_i $end
$var wire 1 ( rst_i $end
$var wire 25 8# tag_i [24:0] $end
$var wire 1 z" write_i $end
$var reg 256 9# data_o [255:0] $end
$var reg 1 :# hasReadHit $end
$var reg 1 ;# hasWritten $end
$var reg 1 +# hit_o $end
$var reg 25 <# tag_o [24:0] $end
$var reg 1 =# to_evict $end
$var reg 1 ># valid $end
$var integer 32 ?# i [31:0] $end
$var integer 32 @# j [31:0] $end
$upscope $end
$upscope $end
$upscope $end
$scope module Data_Memory $end
$var wire 1 " ack_o $end
$var wire 32 A# addr_i [31:0] $end
$var wire 1 ' clk_i $end
$var wire 256 B# data_i [255:0] $end
$var wire 256 C# data_o [255:0] $end
$var wire 1 $ enable_i $end
$var wire 1 ( rst_i $end
$var wire 1 # write_i $end
$var wire 27 D# addr [26:0] $end
$var reg 4 E# count [3:0] $end
$var reg 256 F# data [255:0] $end
$var reg 2 G# state [1:0] $end
$upscope $end
$upscope $end
$enddefinitions $end
#0
$dumpvars
b0 G#
bx F#
b0 E#
bx D#
bx C#
bx B#
bx00000 A#
b10 @#
b10000 ?#
x>#
x=#
bx <#
0;#
0:#
bx 9#
b10xxxxxxxxxxxxxxxxxxxxxxx 8#
bx 7#
bx 6#
05#
bx 4#
b0 3#
bx 2#
01#
bx 0#
b10xxxxxxxxxxxxxxxxxxxxxxx /#
bx .#
bx -#
bx ,#
0+#
bx00000 *#
bx )#
bx (#
x'#
bx &#
x%#
0$#
bx ##
bx "#
bx !#
x~"
bx }"
bx |"
bx {"
0z"
bx y"
xx"
0w"
bx v"
bx u"
bx t"
bx s"
bx r"
bx0 q"
bx p"
bx o"
bx n"
bx m"
bx l"
bx k"
b100 j"
bx i"
b100 h"
b0 g"
b100 f"
bx e"
bx d"
bx c"
bx b"
bx a"
bx `"
bx _"
bx ^"
bx ]"
bx \"
bx ["
bx Z"
bx Y"
bx X"
bx W"
bx V"
bx U"
bx T"
bx S"
bx R"
bx Q"
bx P"
b0 O"
bx N"
bx M"
bx L"
bx K"
b0 J"
b1000000110011 I"
bx H"
bx G"
bx F"
bx E"
bx D"
bx C"
bx B"
bx A"
bx @"
bx ?"
bx >"
bx ="
bx <"
bx ;"
bx :"
b10 9"
08"
bx 7"
bx 6"
bx 5"
bx 4"
bx 3"
bx 2"
bx 1"
bx 0"
bx /"
bx ."
bx -"
bx ,"
bx +"
bx *"
bx )"
b10 ("
bx '"
bx &"
bx %"
bx0 $"
bx #"
b100 ""
b0 !"
b100 ~
b100 }
bx |
bx {
bx z
bx y
bx x
bx w
bx v
bx u
b10 t
0s
bx r
bx q
bx p
bx o
bx n
bx m
0l
0k
0j
0i
b100 h
1g
0f
bx0 e
0d
b0 c
bx b
bx a
bx00000 `
bx _
0^
0]
bx \
bx [
xZ
bx Y
xX
xW
xV
bx U
xT
bx S
bx R
bx Q
bx P
bx O
bx N
bx M
bx L
bx K
0J
bx I
bx H
xG
xF
xE
bx D
xC
xB
bx A
bx @
b100 ?
bx >
bx =
x<
bx ;
x:
bx 9
08
bx 7
06
bx 5
bx00000 4
b100 3
bx 2
bx 1
bx 0
bx /
b0 .
bx -
bx ,
x+
bx *
0)
1(
0'
bx00000 &
bx %
0$
0#
0"
bx !
$end
#12
b0 D#
b0 p
b0 #"
b0 &"
b0 i"
b0 [
b0 y
b0 )"
b0 &
b0 4
b0 A#
b0 `
b0 *#
0B
b0 q
b0 v
b0 b"
b0 e
b0 $"
b0 q"
b0 a
b0 >"
b0 o"
b0 b
b0 ?"
b0 p"
b0 9
b0 Y"
b0 ^"
b0 e"
b0 l"
b1000000000000000000000000 /#
b1000000000000000000000000 8#
b0 ,#
b0 y"
b0 6#
b0 .#
b0 -#
0x"
0~"
b0 n
b0 4"
b0 ]"
b0 o
b0 3"
b0 X"
b0 P
b0 *"
b0 _"
b0 `"
b0 r
b0 w
b0 Z"
b11 u
b11 x
b11 |
b0 M
b0 @"
b0 r"
b0 u"
b0 v"
b0 t"
b0 :"
b0 ="
b0 <"
b0 ;"
b0 6"
b0 5"
b0 n"
b0 m"
b0 '"
b101 2
b11 1
b0 ;
b0 0"
b0 U"
b0 k"
b0 =
b0 T"
b0 d"
b0 >
b0 S"
b0 c"
0<
0:
b0 D
b0 -"
b0 /"
b0 Q"
b0 @
b0 ."
b0 |"
b0 I
b0 ,"
b0 P"
b0 W"
b0 \"
b0 {"
0F
0G
0E
0C
b0 U
b0 +"
b0 7"
b0 C"
b0 N
b0 1"
b0 H"
b0 O
b0 2"
b0 G"
b0 Q
b0 z
b0 F"
b0 Y
b0 B"
b0 a"
b0 R
b0 E"
b0 ["
b0 S
b0 D"
b0 V"
0Z
b0 \
b0 {
b0 A"
0W
0X
0V
0T
b0 K
b0 M"
b0 s"
b0 m
b0 %"
b0 L"
bx H
bx R"
bx }"
bx 2#
bx00000000000000000000000000000000 4#
b10 0
b10011110000011 L
b10011110000011 K"
b10011110000011 N"
b1000000000 /
1)
0(
#25
1l
1j
1f
b0 t
b0 ("
b0 9"
1s
b1000 h
b1000 f"
b1000 j"
b11010 t"
b1111 :"
b10 ;"
b11 '"
b10000000010011100000011 L
b10000000010011100000011 K"
b10000000010011100000011 N"
b1000 ?
b1000 ~
b1000 ""
b1000 h"
b10011110000011 K
b10011110000011 M"
b10011110000011 s"
b10 \
b10 {
b10 A"
bx =
bx T"
bx d"
b100 c
b100 !"
b100 J"
b100 O"
b100 g"
b1 .
0+
0>#
b10 @#
1'
#50
0'
#75
b1000 e
b1000 $"
b1000 q"
b1100 h
b1100 f"
b1100 j"
b1100 p
b1100 #"
b1100 &"
b1100 i"
b100 M
b100 @"
b100 r"
b100 u"
b100 v"
b1110 :"
b100 ="
b100 6"
b100 n"
b100000000010011010000011 L
b100000000010011010000011 K"
b100000000010011010000011 N"
b1100 ?
b1100 ~
b1100 ""
b1100 h"
b1111 U
b1111 +"
b1111 7"
b1111 C"
b10 Q
b10 z
b10 F"
1Z
b0 \
b0 {
b0 A"
1X
1V
1T
b100 m
b100 %"
b100 L"
b10000000010011100000011 K
b10000000010011100000011 M"
b10000000010011100000011 s"
b1000 c
b1000 !"
b1000 J"
b1000 O"
b1000 g"
b10 .
b10 @#
1'
#100
0'
#125
b10000 e
b10000 $"
b10000 q"
b100 [
b100 y
b100 )"
1B
b10000 h
b10000 f"
b10000 j"
b11000 p
b11000 #"
b11000 &"
b11000 i"
b1000 M
b1000 @"
b1000 r"
b1000 u"
b1000 v"
b1101 :"
b1000 ="
b1000 6"
b1000 n"
b100 q
b100 v
b100 b"
1x"
1~"
b110000000010011000000011 L
b110000000010011000000011 K"
b110000000010011000000011 N"
b10000 ?
b10000 ~
b10000 ""
b10000 h"
b1000 m
b1000 %"
b1000 L"
b100000000010011010000011 K
b100000000010011010000011 M"
b100000000010011010000011 s"
b1110 U
b1110 +"
b1110 7"
b1110 C"
b100 N
b100 1"
b100 H"
b100 Y
b100 B"
b100 a"
b1111 D
b1111 -"
b1111 /"
b1111 Q"
1G
1E
1C
b1100 c
b1100 !"
b1100 J"
b1100 O"
b1100 g"
b11 .
b10 @#
1'
#150
0'
#175
b100 3#
b100 .
1+
b10 @#
1'
#200
0'
#225
b1 3#
1$
1^
b101 .
b10 @#
1'
#250
0'
#275
b1 E#
b1 G#
b110 .
b10 @#
1'
#300
0'
#325
b10 E#
b111 .
b10 @#
1'
#350
0'
#375
b11 E#
b1000 .
b10 @#
1'
#400
0'
#425
b100 E#
b1001 .
b10 @#
1'
#450
0'
#475
b101 E#
b1010 .
b10 @#
1'
#500
0'
#525
b110 E#
b1011 .
b10 @#
1'
#550
0'
#575
b111 E#
b1100 .
b10 @#
1'
#600
0'
#625
b1000 E#
b1101 .
b10 @#
1'
#650
0'
#675
16
1"
b1001 E#
b1110 .
b10 @#
1'
#700
0'
#725
06
0"
1z"
b0 E#
b0 G#
b10 3#
11#
0$
0^
b100010001000100100010001000100011001100110011010001000100010001010101010101010110011001100110011101110111011110001000100010001001100110011001101010101010101010111011101110111100110011001100110111011101110111101110111011101111111111111111 0#
b100010001000100100010001000100011001100110011010001000100010001010101010101010110011001100110011101110111011110001000100010001001100110011001101010101010101010111011101110111100110011001100110111011101110111101110111011101111111111111111 7#
b100010001000100100010001000100011001100110011010001000100010001010101010101010110011001100110011101110111011110001000100010001001100110011001101010101010101010111011101110111100110011001100110111011101110111101110111011101111111111111111 7
b100010001000100100010001000100011001100110011010001000100010001010101010101010110011001100110011101110111011110001000100010001001100110011001101010101010101010111011101110111100110011001100110111011101110111101110111011101111111111111111 !#
b100010001000100100010001000100011001100110011010001000100010001010101010101010110011001100110011101110111011110001000100010001001100110011001101010101010101010111011101110111100110011001100110111011101110111101110111011101111111111111111 !
b100010001000100100010001000100011001100110011010001000100010001010101010101010110011001100110011101110111011110001000100010001001100110011001101010101010101010111011101110111100110011001100110111011101110111101110111011101111111111111111 A
b100010001000100100010001000100011001100110011010001000100010001010101010101010110011001100110011101110111011110001000100010001001100110011001101010101010101010111011101110111100110011001100110111011101110111101110111011101111111111111111 C#
b100010001000100100010001000100011001100110011010001000100010001010101010101010110011001100110011101110111011110001000100010001001100110011001101010101010101010111011101110111100110011001100110111011101110111101110111011101111111111111111 F#
b1111 .
b10 @#
1'
#750
0'
#775
b0 4#
b0 H
b0 R"
b0 }"
b0 2#
b0 &#
0'#
0%#
1;#
b0 ##
b0 %
b0 5
b0 B#
b0 _
b0 "#
b0 )#
b0 9#
b0 (#
b0 <#
b0 3#
b10000 .
b10 @#
1'
#800
0'
#825
0=#
0B
b100010001000100100010001000100011001100110011010001000100010001010101010101010110011001100110011101110111011110001000100010001001100110011001101010101010101010111011101110111100110011001100110111011101110100000000000000000000000000000000 0#
b100010001000100100010001000100011001100110011010001000100010001010101010101010110011001100110011101110111011110001000100010001001100110011001101010101010101010111011101110111100110011001100110111011101110100000000000000000000000000000000 7#
b100010001000100100010001000100011001100110011010001000100010001010101010101010110011001100110011101110111011110001000100010001001100110011001101010101010101010111011101110111100110011001100110111011101110100000000000000000000000000000000 4#
b11101110111011101111111111111111 H
b11101110111011101111111111111111 R"
b11101110111011101111111111111111 }"
b11101110111011101111111111111111 2#
1%#
b10001 .
1:#
1+#
b100010001000100100010001000100011001100110011010001000100010001010101010101010110011001100110011101110111011110001000100010001001100110011001101010101010101010111011101110111100110011001100110111011101110111101110111011101111111111111111 ##
b100010001000100100010001000100011001100110011010001000100010001010101010101010110011001100110011101110111011110001000100010001001100110011001101010101010101010111011101110111100110011001100110111011101110111101110111011101111111111111111 %
b100010001000100100010001000100011001100110011010001000100010001010101010101010110011001100110011101110111011110001000100010001001100110011001101010101010101010111011101110111100110011001100110111011101110111101110111011101111111111111111 5
b100010001000100100010001000100011001100110011010001000100010001010101010101010110011001100110011101110111011110001000100010001001100110011001101010101010101010111011101110111100110011001100110111011101110111101110111011101111111111111111 B#
b100010001000100100010001000100011001100110011010001000100010001010101010101010110011001100110011101110111011110001000100010001001100110011001101010101010101010111011101110111100110011001100110111011101110111101110111011101111111111111111 _
b100010001000100100010001000100011001100110011010001000100010001010101010101010110011001100110011101110111011110001000100010001001100110011001101010101010101010111011101110111100110011001100110111011101110111101110111011101111111111111111 "#
b100010001000100100010001000100011001100110011010001000100010001010101010101010110011001100110011101110111011110001000100010001001100110011001101010101010101010111011101110111100110011001100110111011101110111101110111011101111111111111111 )#
b100010001000100100010001000100011001100110011010001000100010001010101010101010110011001100110011101110111011110001000100010001001100110011001101010101010101010111011101110111100110011001100110111011101110111101110111011101111111111111111 9#
b1000000000000000000000000 (#
b1000000000000000000000000 <#
1>#
b10 @#
1;#
1'
#850
0'
#875
b100010001000100100010001000100011001100110011010001000100010001010101010101010110011001100110011101110111011110001000100010001001100110011001101010101010101010111011101110110000000000000000000000000000000011101110111011101111111111111111 0#
b100010001000100100010001000100011001100110011010001000100010001010101010101010110011001100110011101110111011110001000100010001001100110011001101010101010101010111011101110110000000000000000000000000000000011101110111011101111111111111111 7#
b100010001000100100010001000100011001100110011010001000100010001010101010101010110011001100110011101110111011110001000100010001001100110011001101010101010101010111011101110110000000000000000000000000000000011101110111011101111111111111111 4#
b11001100110011001101110111011101 H
b11001100110011001101110111011101 R"
b11001100110011001101110111011101 }"
b11001100110011001101110111011101 2#
b1000 [
b1000 y
b1000 )"
b11000 e
b11000 $"
b11000 q"
b10100 h
b10100 f"
b10100 j"
b11101110111011101111111111111111 9
b11101110111011101111111111111111 Y"
b11101110111011101111111111111111 ^"
b11101110111011101111111111111111 e"
b11101110111011101111111111111111 l"
b100 -#
b1000 q
b1000 v
b1000 b"
b100100 p
b100100 #"
b100100 &"
b100100 i"
b1100 M
b1100 @"
b1100 r"
b1100 u"
b1100 v"
b1100 :"
b1100 ="
b1100 6"
b1100 n"
b1000000000010010110000011 L
b1000000000010010110000011 K"
b1000000000010010110000011 N"
b10100 ?
b10100 ~
b10100 ""
b10100 h"
b1111 ;
b1111 0"
b1111 U"
b1111 k"
b11101110111011101111111111111111 =
b11101110111011101111111111111111 T"
b11101110111011101111111111111111 d"
1<
1:
b1110 D
b1110 -"
b1110 /"
b1110 Q"
b100 I
b100 ,"
b100 P"
b100 W"
b100 \"
b100 {"
b1101 U
b1101 +"
b1101 7"
b1101 C"
b1000 N
b1000 1"
b1000 H"
b1000 Y
b1000 B"
b1000 a"
b1100 m
b1100 %"
b1100 L"
b110000000010011000000011 K
b110000000010011000000011 M"
b110000000010011000000011 s"
b10000 c
b10000 !"
b10000 J"
b10000 O"
b10000 g"
b10010 .
0+
1+#
1:#
b10 @#
1;#
1'
#900
0'
#925
1l
1j
1f
1s
0d
0i
1g
b100000 e
b100000 $"
b100000 q"
b1100 [
b1100 y
b1100 )"
b10101010101010101011101110111011 H
b10101010101010101011101110111011 R"
b10101010101010101011101110111011 }"
b10101010101010101011101110111011 2#
b11000 h
b11000 f"
b11000 j"
b110000 p
b110000 #"
b110000 &"
b110000 i"
b10000 M
b10000 @"
b10000 r"
b10000 u"
b10000 v"
b1011 :"
b10000 ="
b10000 6"
b10000 n"
08"
b1100 q
b1100 v
b1100 b"
b1000 -#
b11001100110011001101110111011101 9
b11001100110011001101110111011101 Y"
b11001100110011001101110111011101 ^"
b11001100110011001101110111011101 e"
b11001100110011001101110111011101 l"
b1010000000010010100000011 L
b1010000000010010100000011 K"
b1010000000010010100000011 N"
b11000 ?
b11000 ~
b11000 ""
b11000 h"
b10000 m
b10000 %"
b10000 L"
b1000000000010010110000011 K
b1000000000010010110000011 M"
b1000000000010010110000011 s"
b1100 U
b1100 +"
b1100 7"
b1100 C"
b1100 N
b1100 1"
b1100 H"
b1100 Y
b1100 B"
b1100 a"
b1101 D
b1101 -"
b1101 /"
b1101 Q"
b1000 I
b1000 ,"
b1000 P"
b1000 W"
b1000 \"
b1000 {"
b1110 ;
b1110 0"
b1110 U"
b1110 k"
b11001100110011001101110111011101 =
b11001100110011001101110111011101 T"
b11001100110011001101110111011101 d"
b100 >
b100 S"
b100 c"
b10100 c
b10100 !"
b10100 J"
b10100 O"
b10100 g"
b100010001000100100010001000100011001100110011010001000100010001010101010101010110011001100110011101110111011110001000100010001001100110011001000000000000000000000000000000001100110011001100110111011101110100000000000000000000000000000000 0#
b100010001000100100010001000100011001100110011010001000100010001010101010101010110011001100110011101110111011110001000100010001001100110011001000000000000000000000000000000001100110011001100110111011101110100000000000000000000000000000000 7#
b100010001000100100010001000100011001100110011010001000100010001010101010101010110011001100110011101110111011110001000100010001001100110011001000000000000000000000000000000001100110011001100110111011101110100000000000000000000000000000000 4#
b10011 .
b100010001000100100010001000100011001100110011010001000100010001010101010101010110011001100110011101110111011110001000100010001001100110011001101010101010101010111011101110111100110011001100110111011101110100000000000000000000000000000000 ##
b100010001000100100010001000100011001100110011010001000100010001010101010101010110011001100110011101110111011110001000100010001001100110011001101010101010101010111011101110111100110011001100110111011101110100000000000000000000000000000000 %
b100010001000100100010001000100011001100110011010001000100010001010101010101010110011001100110011101110111011110001000100010001001100110011001101010101010101010111011101110111100110011001100110111011101110100000000000000000000000000000000 5
b100010001000100100010001000100011001100110011010001000100010001010101010101010110011001100110011101110111011110001000100010001001100110011001101010101010101010111011101110111100110011001100110111011101110100000000000000000000000000000000 B#
b100010001000100100010001000100011001100110011010001000100010001010101010101010110011001100110011101110111011110001000100010001001100110011001101010101010101010111011101110111100110011001100110111011101110100000000000000000000000000000000 _
b100010001000100100010001000100011001100110011010001000100010001010101010101010110011001100110011101110111011110001000100010001001100110011001101010101010101010111011101110111100110011001100110111011101110100000000000000000000000000000000 "#
b100010001000100100010001000100011001100110011010001000100010001010101010101010110011001100110011101110111011110001000100010001001100110011001101010101010101010111011101110111100110011001100110111011101110100000000000000000000000000000000 )#
b100010001000100100010001000100011001100110011010001000100010001010101010101010110011001100110011101110111011110001000100010001001100110011001101010101010101010111011101110111100110011001100110111011101110100000000000000000000000000000000 9#
1+#
1:#
b10 @#
1;#
1'
#950
0'
